Name,Equipment,Sex,Event,Country,Division,BodyweightKg,WeightClassKg,Squat1Kg,Squat2Kg,Squat3Kg,Best3SquatKg,Bench1Kg,Bench2Kg,Bench3Kg,Best3BenchKg,Deadlift1Kg,Deadlift2Kg,Deadlift3Kg,Best3DeadliftKg,TotalKg,Place
Nellie Jo Kurta,Raw,F,BD,Canada,Special Olympics,69.17,72,,,,,-30,30,-37.5,30,85,97.5,-115,97.5,127.5,1
Lisa Newell,Raw,F,BD,Canada,Special Olympics,73.84,84,,,,,35,-40,-40,35,85,90,92.5,92.5,127.5,1
Jamie Robinson,Raw,F,SBD,Canada,Special Olympics,101.51,84+,-30,40,45,45,40,-42.5,-42.5,40,87.5,92.5,95,95,180,1
Jemma Robinson,Raw,F,BD,England,Special Olympics,138.9,84+,,,,,45,50,-55,50,95,100,105,105,155,2
Michelle Martinow,Raw,F,BD,Canada,Special Olympics,95.8,84+,,,,,32.5,35,-40,35,70,72.5,77.5,77.5,112.5,3
Daniel McGauley,Raw,M,SBD,England,Special Olympics,57.46,59,75,82.5,-87.5,82.5,65,70,-75,70,70,80,85,85,237.5,1
Todd Moore,Raw,M,SBD,Canada,Special Olympics,43.94,59,52.5,57.5,60,60,55,57.5,60,60,-85,90,-92.5,90,210,2
Anthony Kay,Raw,M,BD,Canada,Special Olympics,58.72,59,,,,,40,45,-50,45,70,80,95,95,140,3
Troy Gardner,Raw,M,BD,Canada,Special Olympics,57.84,59,,,,,42.5,47.5,-57.5,47.5,82.5,-95,-100,82.5,130,4
Matt MacKay,Raw,M,BD,Canada,Special Olympics,68.86,74,,,,,85,90,-100,90,87.5,92.5,100,100,190,1
Steven Sykorsky,Raw,M,SBD,Canada,Special Olympics,90.56,93,87.5,100,107.5,107.5,-90,95,-105,95,107.5,110,122.5,122.5,325,1
Lee McCook,Raw,M,BD,Canada,Special Olympics,98.3,105,,,,,-70,70,-87.5,70,-117.5,127.5,-137.5,127.5,197.5,1
Tye Cranton,Raw,M,SBD,Canada,Special Olympics,114.71,120,-47.5,-47.5,47.5,47.5,62.5,65,-72.5,65,-115,115,-125,115,227.5,1
Callum MacLagan,Raw,M,SBD,Canada,Special Olympics,184.15,120+,115,125,142.5,142.5,117.5,132.5,137.5,137.5,170,200,-210,200,480,1
Sarah Simpson,Single-ply,F,B,New Zealand,Open,56.04,57,,,,,90,-95,-95,90,,,,,90,1
Sue Thomson,Single-ply,F,B,Canada,Masters 2,49.64,52,,,,,72.5,-77.5,-77.5,72.5,,,,,72.5,1
Trish Muldrock,Single-ply,F,B,New Zealand,Masters 3,47.72,52,,,,,-65,67.5,72.5,72.5,,,,,72.5,1
Edgar Katushabe,Single-ply,M,B,South Africa,Juniors,119,120,,,,,-180,-180,-180,,,,,,,DQ
Chad Sinclair,Single-ply,M,B,Canada,Open,91.77,93,,,,,150,157.5,167.5,167.5,,,,,167.5,1
Duncan Sharp,Single-ply,M,B,England,Open,104.31,105,,,,,190,200,215,215,,,,,215,1
Heinrich Van Rensburg,Single-ply,M,B,South Africa,Open,104.03,105,,,,,160,170,180,180,,,,,180,2
John-Wesley Cummings,Single-ply,M,B,Canada,Open,108.62,120,,,,,207.5,217.5,-220,217.5,,,,,217.5,1
Gordon Sjodin,Single-ply,M,B,Canada,Masters 1,103.84,105,,,,,150,157.5,167.5,167.5,,,,,167.5,1
Stewart Cowan,Single-ply,M,B,England,Masters 2,109.25,120,,,,,165,170,-215,170,,,,,170,1
André Ludik,Single-ply,M,B,South Africa,Masters 2,115.92,120,,,,,135,142.5,147.5,147.5,,,,,147.5,2
John Rivers,Single-ply,M,B,New Zealand,Masters 3,92.05,93,,,,,120,125,130,130,,,,,130,1
Tom Collins #1,Single-ply,M,B,England,Masters 3,104.42,105,,,,,140,182.5,-192.5,182.5,,,,,182.5,1
Rylea Yanke,Raw,F,B,Canada,Juniors,47.51,52,,,,,55,57.5,-60,57.5,,,,,57.5,1
Molly Chapman,Raw,F,B,England,Juniors,62.25,63,,,,,50,-55,55,55,,,,,55,1
Skylar Yanke,Raw,F,B,Canada,Juniors,61.97,63,,,,,-77.5,-77.5,-82.5,,,,,,,DQ
Charlie Chester,Raw,F,B,England,Juniors,91.46,84+,,,,,70,-77.5,77.5,77.5,,,,,77.5,1
Michelle Trench,Raw,F,B,England,Open,49.82,52,,,,,35,40,-42.5,40,,,,,40,1
Erin Ashbacher,Raw,F,B,Canada,Open,54.4,57,,,,,67.5,72.5,-75,72.5,,,,,72.5,1
Mandy Hagstrom,Raw,F,B,Australia,Open,55.7,57,,,,,60,65,-70,65,,,,,65,2
Jessica Benedetto,Raw,F,B,Canada,Open,57.2,63,,,,,95,-97.5,-100.5,95,,,,,95,1
Hollie Johnson,Raw,F,B,England,Open,62.59,63,,,,,60,65,-67.5,65,,,,,65,2
Dana Sandler,Raw,F,B,Canada,Open,82.9,84,,,,,77.5,-82.5,-82.5,77.5,,,,,77.5,1
Rose Jeffares,Raw,F,B,Canada,Open,130.33,84+,,,,,102.5,105,-110,105,,,,,105,1
Beverley Rodgers,Raw,F,B,England,Masters 1,62.87,63,,,,,75,-80,-80,75,,,,,75,1
Jeni Aulman,Raw,F,B,England,Masters 1,69.67,72,,,,,60,65,-70,65,,,,,65,1
Adele Frizzell,Raw,F,B,Canada,Masters 1,82.46,84,,,,,62.5,67.5,-72.5,67.5,,,,,67.5,1
Bonney Rempel,Raw,F,B,Canada,Masters 1,101.32,84+,,,,,90,95,100,100,,,,,100,1
Sarah Marsden,Raw,F,B,England,Masters 1,104.12,84+,,,,,72.5,80,-85,80,,,,,80,2
Delwyn Evans,Raw,F,B,New Zealand,Masters 2,70.86,72,,,,,67.5,72.5,75.5,75.5,,,,,75.5,1
Marina Cornwall,Raw,F,B,England,Masters 3,45.31,47,,,,,45,47.5,-50.5,47.5,,,,,47.5,1
Connor Burkhill,Raw,M,B,England,Sub-Juniors,65.6,66,,,,,105,-112.5,112.5,112.5,,,,,112.5,1
Deston Yee,Raw,M,B,Canada,Sub-Juniors,79.06,83,,,,,115,122.5,127.5,127.5,,,,,127.5,1
Farris Collins,Raw,M,B,England,Sub-Juniors,91.94,93,,,,,115,127.5,-135,127.5,,,,,127.5,1
John Phillips,Raw,M,B,England,Juniors,65.65,66,,,,,110,115,120,120,,,,,120,1
Larry Ko,Raw,M,B,Canada,Juniors,64.62,66,,,,,90,95,100,100,,,,,100,2
Adam Sawyers,Raw,M,B,England,Juniors,79.45,83,,,,,97.5,-102.5,102.5,102.5,,,,,102.5,1
Franco Holder,Raw,M,B,South Africa,Juniors,84.46,93,,,,,150,160,-165,160,,,,,160,1
Francois Maritz,Raw,M,B,South Africa,Juniors,103.94,105,,,,,160,167.5,172.5,172.5,,,,,172.5,1
Gabe Gomez,Raw,M,B,Canada,Juniors,100.74,105,,,,,160,-170,170,170,,,,,170,2
Alfred Jong,Raw,M,B,Canada,Open,57.88,59,,,,,102.5,107.5,-112.5,107.5,,,,,107.5,1
Michael Botha,Raw,M,B,South Africa,Open,64.83,66,,,,,125,135,140,140,,,,,140,1
Simon Newton,Raw,M,B,England,Open,73.28,74,,,,,130,-147.5,-147.5,130,,,,,130,1
Dan Watkins #1,Raw,M,B,England,Open,90.28,93,,,,,165,175,-182.5,175,,,,,175,1
Leon Brown,Raw,M,B,Canada,Open,101.84,105,,,,,205,215,-220,215,,,,,215,1
David Edwards,Raw,M,B,South Africa,Open,117.06,120,,,,,170,190,-205,190,,,,,190,1
Gary Lacoursiere,Raw,M,B,Canada,Masters 1,73.09,74,,,,,120,125,127.5,127.5,,,,,127.5,1
Martin Smith #1,Raw,M,B,England,Masters 1,81.82,83,,,,,125,135,-140,135,,,,,135,1
Sheridan Wray,Raw,M,B,England,Masters 1,92.45,93,,,,,170,177.5,-185,177.5,,,,,177.5,1
Kevin Weiss,Raw,M,B,Canada,Masters 1,91.66,93,,,,,155,160,165,165,,,,,165,2
Mike Carroll,Raw,M,B,Australia,Masters 1,98.36,105,,,,,160,165,170,170,,,,,170,1
Gordon Sjodin,Raw,M,B,Canada,Masters 1,104.41,105,,,,,135,150,-160,150,,,,,150,2
John O'Riordan,Raw,M,B,England,Masters 2,86.37,93,,,,,120,125,130,130,,,,,130,1
Andy Rigby,Raw,M,B,England,Masters 2,104.6,105,,,,,200,215,-222,215,,,,,215,1
Brian Rock,Raw,M,B,Canada,Masters 2,103.3,105,,,,,160,-167.5,-167.5,160,,,,,160,2
Colin Young,Raw,M,B,South Africa,Masters 2,104.01,105,,,,,137.5,-142.5,142.5,142.5,,,,,142.5,3
Stewart Cowan,Raw,M,B,England,Masters 2,110.03,120,,,,,140,150,-160,150,,,,,150,1
Donald Carrieres,Raw,M,B,Canada,Masters 3,82.52,83,,,,,-127.5,127.5,-135,127.5,,,,,127.5,1
Rick Belland,Raw,M,B,Canada,Masters 3,80.43,83,,,,,-125,-125,125,125,,,,,125,2
Tilman Gallant,Raw,M,B,Canada,Masters 3,85.47,93,,,,,130,135,138,138,,,,,138,1
Tom Collins #1,Raw,M,B,England,Masters 3,103.8,105,,,,,145,150.5,-167.5,150.5,,,,,150.5,1
Isabella Devetak,Raw,F,SBD,Australia,Sub-Juniors,70.9,72,112.5,117.5,120,120,57.5,65,-67.5,65,115,125,132.5,132.5,317.5,1
Bronwyn Marshall,Raw,F,SBD,South Africa,Sub-Juniors,67.45,72,95,-102.5,102.5,102.5,42.5,47.5,-50,47.5,110,-117.5,117.5,117.5,267.5,2
Paige White,Raw,F,SBD,Australia,Sub-Juniors,83.27,84,-130,137.5,145,145,65,70,-72.5,70,175,195,-215,195,410,1
Emma Takapi,Raw,F,SBD,New Zealand,Sub-Juniors,95.92,84+,117.5,130,140,140,60,-70,70,70,167.5,185,-200.5,185,395,1
Rhonda Wong,Raw,F,SBD,Canada,Juniors,46.42,47,105,112.5,120,120,52.5,57.5,62.5,62.5,-127.5,127.5,-140,127.5,310,1
Rylea Yanke,Raw,F,SBD,Canada,Juniors,46.18,47,57.5,62.5,-65,62.5,55,57.5,60,60,67.5,-75,75,75,197.5,2
Joy Nnamani,Raw,F,SBD,England,Juniors,50.6,52,125,135,-140,135,60,65,67.5,67.5,-165,-165,165,165,367.5,1
Pamela Anderson,Raw,F,SBD,Canada,Juniors,49.53,52,115,-122.5,122.5,122.5,67.5,-70,-70,67.5,135,145,152.5,152.5,342.5,2
Emma McRae,Raw,F,SBD,Australia,Juniors,51.8,52,110,117.5,-122.5,117.5,65,70,72.5,72.5,135,145,-155,145,335,3
Breann Thiessen,Raw,F,SBD,Canada,Juniors,55.58,57,142.5,150.5,153,153,70,75,-80,75,147.5,-157.5,157.5,157.5,385.5,1
Hannah Chan,Raw,F,SBD,England,Juniors,56.6,57,105,110,115,115,-50,50,55,55,125,-135,-135,125,295,2
Lauren Eddington,Raw,F,SBD,New Zealand,Juniors,54.08,57,100,-112.5,-115,100,-60,65,-70,65,110,120,-132.5,120,285,3
Megan Leighton,Raw,F,SBD,South Africa,Juniors,56.72,57,92.5,-97.5,-97.5,92.5,60,-62.5,-62.5,60,100,112.5,-122.5,112.5,265,4
Savanah Porzuczek,Raw,F,SBD,Canada,Juniors,62.61,63,140,-147.5,150,150,87.5,95,100,100,150,160,165,165,415,1
Lisa Lethbridge,Raw,F,SBD,New Zealand,Juniors,60.97,63,135,142.5,-150,142.5,70,75,-80,75,160,-170,-170,160,377.5,2
Ariel Symon,Raw,F,SBD,Australia,Juniors,60.02,63,122.5,132.5,-137.5,132.5,75,80,85,85,127.5,137.5,-142.5,137.5,355,3
Tamara Navarro,Raw,F,SBD,Australia,Juniors,62.67,63,120,125,-130,125,62.5,65,-67.5,65,-137.5,140,147.5,147.5,337.5,4
Karenjeet Bains,Raw,F,SBD,England,Juniors,62.19,63,110,120,125,125,60,65,-67.5,65,130,137.5,145,145,335,5
Sonia Chung,Raw,F,SBD,New Zealand,Juniors,62.66,63,135,142.5,-147.5,142.5,60,65,-67.5,65,110,120,-125,120,327.5,6
Skylar Yanke,Raw,F,SBD,Canada,Juniors,61.66,63,102.5,107.5,112.5,112.5,75,80,-82.5,80,117.5,125,-132.5,125,317.5,7
Molly Chapman,Raw,F,SBD,England,Juniors,62.42,63,80,90,92.5,92.5,50,52.5,55,55,105,115,-120,115,262.5,8
Amy Spencer,Raw,F,SBD,Wales,Juniors,68.98,72,117.5,125,-130,125,65,70,-75,70,130,140,-147.5,140,335,1
Alexandra Kousathana,Raw,F,SBD,Canada,Juniors,76.2,84,117.5,-122.5,125,125,70,72.5,-75,72.5,130,137.5,142.5,142.5,340,1
Charlie Chester,Raw,F,SBD,England,Juniors,90.9,84+,152.5,160,167.5,167.5,72.5,77.5,-80,77.5,167.5,175,180,180,425,1
Joanna Rieber,Raw,F,SBD,Canada,Open,51.7,52,120,125,127.5,127.5,-85,85,-90,85,142.5,147.5,152.5,152.5,365,1
Emma Goodwin,Raw,F,SBD,England,Open,51.32,52,102.5,110,-115,110,62.5,-65,-65,62.5,145,155,157.5,157.5,330,2
Alisa Edwards,Raw,F,SBD,Australia,Open,51.34,52,107.5,112.5,-115,112.5,60,62.5,65,65,130,142.5,-152.5,142.5,320,3
Rochene Higginson,Raw,F,SBD,Australia,Open,51.93,52,97.5,-102.5,-102.5,97.5,55,57.5,-60,57.5,112.5,120,125,125,280,4
Maria Htee,Raw,F,SBD,Canada,Open,56.83,57,160,165,170,170,87.5,-92.5,92.5,92.5,155,160,165,165,427.5,1
Jessica Benedetto,Raw,F,SBD,Canada,Open,56.54,57,132.5,137.5,-142.5,137.5,95.5,100.5,-101,100.5,160,-170,-172.5,160,398,2
Michelle Letcher,Raw,F,SBD,South Africa,Open,55.55,57,110,115,-120,115,60,-65,-65,60,145,155,-160,155,330,3
Sarah Simpson,Raw,F,SBD,New Zealand,Open,56.21,57,90,95,97.5,97.5,70,72.5,-75,72.5,125,135,140,140,310,4
Kacey Baines,Raw,F,SBD,Canada,Open,62.3,63,125,130,132.5,132.5,57.5,62.5,65,65,170,180,182.5,182.5,380,1
Carolina Dillen,Raw,F,SBD,New Zealand,Open,63,63,127.5,135,140,140,75,80,-82.5,80,150,160,-170,160,380,2
Kim Stevenson,Raw,F,SBD,Australia,Open,61.4,63,120,-127.5,127.5,127.5,95,100.5,-102.5,100.5,127.5,135,140,140,368,3
Kristie Matthews,Raw,F,SBD,Australia,Open,61.2,63,125,130,-132.5,130,67.5,-72.5,-72.5,67.5,150,155,-165,155,352.5,4
Katie Lin,Raw,F,SBD,New Zealand,Open,61.3,63,122.5,130,132.5,132.5,65,-70,-70,65,140,150,155,155,352.5,5
Laura Newman,Raw,F,SBD,South Africa,Open,62.3,63,120,130,135,135,60,65,-67.5,65,140,-142.5,-162.5,140,340,6
Rowan Hendry-Horne,Raw,F,SBD,Scotland,Open,61.8,63,125,-132.5,-132.5,125,65,70,-75,70,125,130,-135,130,325,7
Hollie Johnson,Raw,F,SBD,England,Open,62.4,63,110,115,-120,115,65,-67.5,-67.5,65,127.5,135,140,140,320,8
Emma Cresswell,Raw,F,SBD,Wales,Open,61.01,63,100,-107.5,107.5,107.5,52.5,57.5,-60,57.5,130,137.5,-142.5,137.5,302.5,9
Rhaea Stinn,Raw,F,SBD,Canada,Open,71.61,72,170,180,187,187,107.5,116,117.5,117.5,165,175,187.5,187.5,492,1
Sarah Leighton,Raw,F,SBD,Canada,Open,70.56,72,145,155,160,160,92.5,97.5,102.5,102.5,155,165,177.5,177.5,440,2
Tanya Bull,Raw,F,SBD,Wales,Open,69.95,72,130,140,-147.5,140,67.5,72.5,75,75,165,180,-187.5,180,395,3
Ruta Lendraitiene,Raw,F,SBD,England,Open,69.12,72,120,130,-135,130,-80,80,87.5,87.5,140,150,155,155,372.5,4
Anna Thompson,Raw,F,SBD,New Zealand,Open,67.24,72,100,107.5,112.5,112.5,62.5,67.5,70,70,150,160,170,170,352.5,5
Hannah Yardy,Raw,F,SBD,England,Open,68.87,72,102.5,-110,-115,102.5,65,70,-72.5,70,147.5,157.5,165,165,337.5,6
Marcelle Brown,Raw,F,SBD,Scotland,Open,65.12,72,95,105,-115,105,70,75,-80,75,140,-150,-150,140,320,7
Avril Hughes,Raw,F,SBD,Wales,Open,68.81,72,95,105,-110,105,-50,52.5,-57.5,52.5,140,147.5,155,155,312.5,8
Sarah Petchell,Raw,F,SBD,Australia,Open,70.86,72,-140,140,147.5,147.5,75,80,82.5,82.5,-177.5,-185,-185,,,DQ
Pandora Togiaso,Raw,F,SBD,New Zealand,Open,82.68,84,145,155,-160,155,75,80,85,85,150,165,-180,165,405,1
Sandri van Staden,Raw,F,SBD,South Africa,Open,78.16,84,135,-145,-145,135,65,72.5,77.5,77.5,160,170,177.5,177.5,390,2
Michelle Welsh,Raw,F,SBD,New Zealand,Open,82.33,84,130,137.5,-142.5,137.5,65,67.5,-70,67.5,160,-167.5,-167.5,160,365,3
Vicky McDonald,Raw,F,SBD,Wales,Open,83.21,84,135,-145,145,145,60,65,67.5,67.5,140,150,-155,150,362.5,4
Danielle Johnson #3,Raw,F,SBD,England,Open,81.5,84,-125,125,-132.5,125,-47.5,47.5,52.5,52.5,150,155,160,160,337.5,5
Suzy Taljard,Raw,F,SBD,England,Open,82.16,84,105,110,115,115,55,60,-65,60,135,142.5,150,150,325,6
Ana de Joux,Raw,F,SBD,New Zealand,Open,102.3,84+,160,170,-185,170,80,85,87.5,87.5,170,175,190,190,447.5,1
Jessie Buydens,Raw,F,SBD,Canada,Open,115.43,84+,157.5,165,-172.5,165,92.5,97.5,100,100,162.5,-170,-182.5,162.5,427.5,2
Tracy O'Callaghan,Raw,F,SBD,Wales,Open,93.78,84+,145,-155,-155,145,67.5,72.5,-75,72.5,150,160,165,165,382.5,3
Laura Shea,Raw,F,SBD,England,Open,119.57,84+,-120,120,130,130,70,-72.5,-72.5,70,130,140,145,145,345,4
Vanessa Butler #1,Raw,F,SBD,England,Masters 1,55.47,57,80,85,90,90,45,-47.5,47.5,47.5,95,102.5,-105,102.5,240,1
Khrys Kyriacou,Raw,F,SBD,England,Masters 1,62.75,63,-127.5,127.5,132.5,132.5,72.5,77.5,80,80,135,147.5,-155,147.5,360,1
Zoe Deeks,Raw,F,SBD,Australia,Masters 1,62.21,63,120,125,130,130,80,83.5,-84,83.5,132.5,140,145,145,358.5,2
Frances Manias,Raw,F,SBD,Canada,Masters 1,61.59,63,115,122.5,127.5,127.5,65,72.5,75,75,145,152.5,-157.5,152.5,355,3
Beverley Rodgers,Raw,F,SBD,England,Masters 1,62.76,63,107.5,115,-120,115,75,80,84,84,125,132.5,-140,132.5,331.5,4
Cass Pickard,Raw,F,SBD,Australia,Masters 1,68,72,140,150,-155,150,67.5,-72.5,72.5,72.5,175,-182.5,-195.5,175,397.5,1
Tui Katene,Raw,F,SBD,New Zealand,Masters 1,70.1,72,110,120,-125,120,75,80,-85,80,130,140,147.5,147.5,347.5,3
Natasha Dunn-Kvedaras,Raw,F,SBD,Canada,Masters 1,65.4,72,120,130,-135,130,70,77.5,-82.5,77.5,125,135,140,140,347.5,2
Jeni Aulman,Raw,F,SBD,England,Masters 1,69.5,72,110,117.5,-120,117.5,60,65,-70,65,147.5,155,-165,155,337.5,4
Michelle Rodgers,Raw,F,SBD,Australia,Masters 1,70.1,72,110,117.5,120,120,52.5,-55,-55,52.5,135,140,-145,140,312.5,5
Maureen Ackerman,Raw,F,SBD,South Africa,Masters 1,66.4,72,110,-117.5,-117.5,110,65,-70,-70,65,125,135,-142.5,135,310,6
Melissa Wall,Raw,F,SBD,Scotland,Masters 1,66.5,72,72.5,-77.5,-77.5,72.5,45,-47.5,,45,130,-140,-140,130,247.5,7
Genevieve Grant,Raw,F,SBD,Canada,Masters 1,82.7,84,117.5,125,-130,125,75,80,82.5,82.5,155,165,-170,165,372.5,1
Kim Dennis,Raw,F,SBD,Canada,Masters 1,81.7,84,135.5,140,145,145,60,-62.5,62.5,62.5,135,142.5,-147.5,142.5,350,2
Julie Henderson,Raw,F,SBD,Australia,Masters 1,76.63,84,110,120,125,125,70,75,-77.5,75,130,137.5,142.5,142.5,342.5,3
Aimee Mergaert,Raw,F,SBD,Canada,Masters 1,116.4,84+,155,165,-175,165,85,90,92.5,92.5,150,160,170,170,427.5,1
Sarah Marsden,Raw,F,SBD,England,Masters 1,102.92,84+,132.5,142.5,152.5,152.5,75,80,-85,80,132.5,142.5,-152.5,142.5,375,2
Bonney Rempel,Raw,F,SBD,Canada,Masters 1,101.62,84+,-160,-160,-160,,90,97.5,-102.5,97.5,140,150,155,155,,DQ
Mira Slapinski,Raw,F,SBD,Canada,Masters 2,46.04,47,70,75,-77.5,75,35,40,-42.5,40,95,100,102.5,102.5,217.5,1
Helen Allen,Raw,F,SBD,Australia,Masters 2,56.5,57,82.5,90,95,95,57.5,-62.5,-62.5,57.5,132.5,137.5,142.5,142.5,295,1
Clair Angel,Raw,F,SBD,Australia,Masters 2,56.35,57,95,100,-102.5,100,45,50,-52.5,50,125,130,135,135,285,2
Kim Power,Raw,F,SBD,Canada,Masters 2,55.74,57,95,100,-102.5,100,52.5,-60,60,60,105,112.5,-120,112.5,272.5,3
Karen Maxwell,Raw,F,SBD,Canada,Masters 2,61.8,63,87.5,92.5,95,95,47.5,50,-52.5,50,112.5,-117.5,-117.5,112.5,257.5,1
Lynda Banks,Raw,F,SBD,Scotland,Masters 2,68.22,72,95,100,-102.5,100,55,60,-62.5,60,127.5,135,140.5,140.5,300.5,1
Gloria Fitzpatrick,Raw,F,SBD,England,Masters 2,70,72,90,97.5,107.5,107.5,50,55,-57.5,55,110,120,130,130,292.5,2
Stephanie Needham,Raw,F,SBD,Canada,Masters 2,81.21,84,105,-110,110,110,60,62.5,65,65,120,127.5,132.5,132.5,307.5,1
Shelley Colter,Raw,F,SBD,Canada,Masters 2,117.7,84+,-112.5,112.5,122.5,122.5,67.5,70,72.5,72.5,145,155,-165,155,350,1
Sandra Nase,Raw,F,SBD,Canada,Masters 2,104.99,84+,-100,100,-105,100,55,60,62.5,62.5,150,157.5,-165,157.5,320,2
Marina Cornwall,Raw,F,SBD,England,Masters 3,45.19,47,-72.5,72.5,-78,72.5,45,47.5,-50.5,47.5,115,122.5,123,123,243,1
Trish Muldrock,Raw,F,SBD,New Zealand,Masters 3,48.2,52,77.5,82.5,-85,82.5,55.5,60,62.5,62.5,112.5,122.5,130,130,275,1
Cherry Wilson,Raw,F,SBD,New Zealand,Masters 3,56.53,57,72.5,-75,-75,72.5,37.5,40,-42.5,40,105,108.5,-110,108.5,221,1
Janet Warne,Raw,F,SBD,Canada,Masters 3,56.03,57,-77.5,77.5,-80.5,77.5,42.5,45.5,47.5,47.5,87.5,-95,95,95,220,2
Janne Barrett,Raw,F,SBD,New Zealand,Masters 3,71.19,72,75,80,85,85,47.5,50,-52.5,50,107.5,112.5,-117.5,112.5,247.5,1
Connor Burkhill,Raw,M,SBD,England,Sub-Juniors,64.9,66,145,155,-160,155,107.5,112.5,-115,112.5,170,180,185,185,452.5,1
Hasnain Ikram,Raw,M,SBD,Wales,Sub-Juniors,72.99,74,175,182.5,190,190,110,117.5,-120,117.5,215,227.5,-233,227.5,535,1
Vincent Capes,Raw,M,SBD,New Zealand,Sub-Juniors,73.22,74,-175,175,182.5,182.5,100,-110,-110,100,200,-220,-220,200,482.5,2
Ben Sugarman,Raw,M,SBD,England,Sub-Juniors,70.64,74,160,167.5,172.5,172.5,75,-80,80,80,195,210,212.5,212.5,465,3
Ivan Madsen,Raw,M,SBD,New Zealand,Sub-Juniors,82.05,83,-195,195,205,205,100,107.5,110,110,230,232.5,-245,232.5,547.5,1
Deston Yee,Raw,M,SBD,Canada,Sub-Juniors,77.72,83,150,157.5,167.5,167.5,120,-127.5,127.5,127.5,200,210,217.5,217.5,512.5,2
Ben Sparks,Raw,M,SBD,England,Sub-Juniors,75.67,83,130,135,140,140,67.5,70,-72.5,70,195,202.5,210,210,420,3
Jesse Ross,Raw,M,SBD,Australia,Sub-Juniors,81.23,83,-182.5,-190,-190,,100,-107.5,-107.5,100,190,202.5,-212.5,202.5,,DQ
Mark Plummer #1,Raw,M,SBD,Canada,Sub-Juniors,90.5,93,247.5,-257.5,257.5,257.5,167.5,170,-172,170,257.5,267.5,-277.5,267.5,695,1
Christopher Hall,Raw,M,SBD,New Zealand,Sub-Juniors,92.2,93,-220,-220,220,220,137.5,145,150,150,260,-272.5,-272.5,260,630,2
Farris Collins,Raw,M,SBD,England,Sub-Juniors,90.5,93,185,200,210,210,125,132.5,-140,132.5,220,-227.5,-227.5,220,562.5,3
Paul Farbacher,Raw,M,SBD,Canada,Sub-Juniors,103.84,105,255,265.5,275.5,275.5,160,170,175,175,255,270,-275,270,720.5,1
Cameron St Amand,Raw,M,SBD,Canada,Sub-Juniors,98.61,105,265,272.5,-276,272.5,150,160,165,165,250,262.5,272.5,272.5,710,2
Jayden Willcock,Raw,M,SBD,New Zealand,Sub-Juniors,101.52,105,222.5,225,245,245,142.5,152.5,-160,152.5,245,262.5,-277.5,262.5,660,3
Liam Schultz,Raw,M,SBD,South Africa,Sub-Juniors,119.75,120,-245,245,-275.5,245,95,102.5,-105,102.5,270,-290,-303.5,270,617.5,1
Johnde Victor,Raw,M,SBD,South Africa,Sub-Juniors,129.51,120+,185,205,215,215,127.5,137.5,145,145,225,235,245,245,605,1
Jason Luo,Raw,M,SBD,Canada,Juniors,58.8,59,175,185.5,-187.5,185.5,97.5,-102.5,105,105,190,200,-205,200,490.5,1
Nantei Nikora,Raw,M,SBD,Kiribati,Juniors,58.7,59,155,-165,165,165,107.5,115,120.5,120.5,195,-205,-205.5,195,480.5,2
Nathaniel Shaw,Raw,M,SBD,England,Juniors,65.6,66,175,185,195,195,100,107.5,112.5,112.5,210,220,225,225,532.5,1
Jordan Lam #2,Raw,M,SBD,England,Juniors,65.5,66,165,175,185,185,112.5,-120,120,120,205,217.5,-230,217.5,522.5,2
James McIlwaine,Raw,M,SBD,N.Ireland,Juniors,66,66,195,205,-207.5,205,100,105,-107.5,105,182.5,190,197.5,197.5,507.5,3
Lyndon Le,Raw,M,SBD,Australia,Juniors,65.8,66,-155,160,167.5,167.5,100,102.5,-107.5,102.5,195,207.5,-210,207.5,477.5,4
Salman Khan #1,Raw,M,SBD,England,Juniors,73.9,74,202.5,212.5,217.5,217.5,135,137.5,142.5,142.5,250,260,265,265,625,1
Ryley Russell,Raw,M,SBD,Canada,Juniors,71.8,74,207.5,220,227.5,227.5,130,137.5,-140,137.5,225,-230,-230,225,590,2
Jak Tan,Raw,M,SBD,New Zealand,Juniors,73,74,187.5,202.5,215,215,107.5,-115,115,115,220,240,-245,240,570,3
Kris Tiller,Raw,M,SBD,Canada,Juniors,72.8,74,187.5,-197.5,-197.5,187.5,145,-152.5,-152.5,145,205,220,227.5,227.5,560,4
Joel Larter,Raw,M,SBD,New Zealand,Juniors,74,74,177.5,192.5,202.5,202.5,120,127.5,-132.5,127.5,-210,210,-245,210,540,5
Tom Dunning,Raw,M,SBD,England,Juniors,72.2,74,195,-202.5,-202.5,195,125,-130,-130,125,-215,215,-220,215,535,6
Christopher Chan,Raw,M,SBD,Australia,Juniors,72.2,74,190,-200,200,200,92.5,-97.5,97.5,97.5,210,-217.5,-227.5,210,507.5,7
Owen Hubbard,Raw,M,SBD,Wales,Juniors,82.28,83,250,265,-272.5,265,190,200,-206,200,250,265,-282.5,265,730,1
Joshua Tukua,Raw,M,SBD,New Zealand,Juniors,81.27,83,232.5,-240,240,240,152.5,-157.5,-157.5,152.5,-280,280,-297.5,280,672.5,2
Randy Yee,Raw,M,SBD,Canada,Juniors,81.89,83,235,245,250,250,135,140,-145,140,257.5,267.5,275,275,665,3
Dean Price,Raw,M,SBD,New Zealand,Juniors,81.13,83,-230,230,242.5,242.5,160,167.5,170,170,240,250,-260,250,662.5,4
Owen Lockwood,Raw,M,SBD,England,Juniors,82.24,83,195,210,220,220,125,132.5,140,140,235,255,270,270,630,5
Andrew Le-tang,Raw,M,SBD,Australia,Juniors,82.75,83,192.5,-202.5,-202.5,192.5,125,-130,-130,125,252.5,267.5,-277.5,267.5,585,6
James Macintosh,Raw,M,SBD,South Africa,Juniors,80.92,83,195,202.5,-205,202.5,130,135,-140,135,215,225,240,240,577.5,7
Lewis Ball,Raw,M,SBD,England,Juniors,80.99,83,180,190,-200,190,125,130,-135,130,210,-220,-220,210,530,8
Timothy McEwan,Raw,M,SBD,New Zealand,Juniors,91.2,93,255,270,-280,270,147.5,155,-157.5,155,270,285,-298,285,710,1
Hung Phan,Raw,M,SBD,Australia,Juniors,91.8,93,-235,235,-240,235,145,152.5,157.5,157.5,255,272.5,280,280,672.5,2
Mike Mighton,Raw,M,SBD,Canada,Juniors,92.9,93,-245,245,-255,245,155,-162.5,-162.5,155,235,250,260,260,660,3
Theodore Mouratidis,Raw,M,SBD,Australia,Juniors,92.5,93,-215,215,-222.5,215,142.5,147.5,150,150,-280,280,-302.5,280,645,4
Tom Hart,Raw,M,SBD,New Zealand,Juniors,91.2,93,212.5,225,237.5,237.5,125,132.5,-137.5,132.5,257.5,-272.5,-272.5,257.5,627.5,5
Franco Holder,Raw,M,SBD,South Africa,Juniors,85,93,-190,190,-202.5,190,165,-170,,165,240,250,-260,250,605,6
Alex Pearson-Jones,Raw,M,SBD,England,Juniors,91.1,93,175,185,195,195,122.5,127.5,-132.5,127.5,245,255,265,265,587.5,7
Harvey Robinson,Raw,M,SBD,Wales,Juniors,103.3,105,250,265,270,270,155,165,-170,165,290,310,315,315,750,1
Francois Maritz,Raw,M,SBD,South Africa,Juniors,103.8,105,240,270,-277.5,270,165,-175,175,175,270,290,-292.5,290,735,2
Alexander Pierides,Raw,M,SBD,England,Juniors,101.3,105,235,250,260,260,155,165,170,170,245,260,-270,260,690,3
Kenny Lay,Raw,M,SBD,Australia,Juniors,104.1,105,222.5,232.5,240,240,142.5,147.5,-152.5,147.5,285,302,-310.5,302,689.5,4
Callum Crozier,Raw,M,SBD,Scotland,Juniors,100.5,105,190,200,-207.5,200,160,170,-175,170,250,260,-270,260,630,5
William DeJong,Raw,M,SBD,Canada,Juniors,104.4,105,220,235,250,250,147.5,160,165,165,-301.5,301.5,322,322,,DD
Phil Brougham,Raw,M,SBD,Canada,Juniors,119,120,270,287.5,-300,287.5,160,172.5,-180,172.5,272.5,292.5,-302.5,292.5,752.5,1
Christopher Corbin,Raw,M,SBD,England,Juniors,117.84,120,217.5,227.5,235,235,140,147.5,150,150,237.5,255,-267.5,255,640,2
Ethan Foote,Raw,M,SBD,New Zealand,Juniors,143.91,120+,250,260,265,265,165,170,172.5,172.5,320,342,,342,779.5,1
Joshua Patacca,Raw,M,SBD,Australia,Juniors,142.22,120+,230,245,260,260,150,160,170,170,260,-280,-280,260,690,2
Stephen Cascioli,Raw,M,SBD,Canada,Open,64.59,66,230,-241,244,244,145,152.5,-157.5,152.5,235,247.5,-257.5,247.5,644,1
Andrew Dawes,Raw,M,SBD,England,Open,64.14,66,177.5,192.5,197.5,197.5,120,132.5,137.5,137.5,190,205,212.5,212.5,547.5,2
Kent Brown,Raw,M,SBD,Canada,Open,64.93,66,180,187.5,-190,187.5,132.5,140,-145,140,192.5,205,-212.5,205,532.5,3
Michael Botha,Raw,M,SBD,South Africa,Open,62.08,66,167.5,175,-180,175,137.5,142.5,-145,142.5,190,-205,-205,190,507.5,4
Steven Shi,Raw,M,SBD,New Zealand,Open,65.76,66,172.5,185,-195,185,105,112.5,120,120,190,-205,,190,495,5
Tui Halatokoua,Raw,M,SBD,New Zealand,Open,72.9,74,205,215,-220,215,140,145,150,150,250,260,-267.5,260,625,1
Krystan Hosein,Raw,M,SBD,Trinidad and Tobago,Open,72.1,74,-205,207.5,210,210,125,-130,-130,125,260,-265,-265,260,595,2
Tim Baker #1,Raw,M,SBD,England,Open,72.97,74,180,190,200,200,120,130,-135,130,230,250,265,265,595,3
Sean Janzer,Raw,M,SBD,Canada,Open,72.96,74,197.5,207.5,212.5,212.5,125,130,135,135,-240,240,-250,240,587.5,4
Osmond Mack,Raw,M,SBD,Guyana,Open,72.79,74,185,197.5,202.5,202.5,130,-137.5,-137.5,130,230,-235,-235,230,562.5,5
Joshua Bosman,Raw,M,SBD,England,Open,73.52,74,167.5,177.5,-185,177.5,-115,115,120,120,237.5,257.5,-262.5,257.5,555,6
Douane Hamilton,Raw,M,SBD,Trinidad and Tobago,Open,80.57,83,-205,205,-215,205,155,162.5,-167.5,162.5,285,-297.5,-297.5,285,652.5,1
Brandon Summers,Raw,M,SBD,Canada,Open,92.48,93,-235,240,250,250,162.5,172.5,180,180,245,-257.5,270,270,700,1
Amaan Bhat,Raw,M,SBD,Australia,Open,91.34,93,-240,240,247.5,247.5,-140,-142.5,142.5,142.5,280,-300,-300,280,670,2
Tom Gee #1,Raw,M,SBD,England,Open,92.69,93,207.5,217.5,225,225,162.5,170,172.5,172.5,242.5,255,265,265,662.5,3
Francis Barrett #2,Raw,M,SBD,Wales,Open,89.7,93,220,-232.5,-235,220,155,165,-172.5,165,240,252.5,-267.5,252.5,637.5,4
Dan Watkins #1,Raw,M,SBD,England,Open,90.83,93,190,200,-205,200,172.5,177.5,180,180,227.5,-237.5,-237.5,227.5,607.5,5
Marino Jeffery,Raw,M,SBD,Guyana,Open,86.47,93,205,215,225,225,135,145,147.5,147.5,205,227.5,-240,227.5,600,6
Erwyn Smith,Raw,M,SBD,Guyana,Open,85.09,93,167.5,185,-197.5,185,125,-132.5,-132.5,125,242.5,-250,250,250,560,7
David Thomas #5,Raw,M,SBD,Wales,Open,90.57,93,-190,190,200,200,105,110,112.5,112.5,225,235,245,245,557.5,8
Nick Dorn,Raw,M,SBD,Australia,Open,104.3,105,240,-252.5,-252.5,240,170,180,,180,255,280,-295,280,700,1
Ransilu Jayathilake,Raw,M,SBD,Sri Lanka,Open,104.5,105,240,-255,255,255,110,120,-122.5,120,285,295,305,305,680,2
Angus Blair,Raw,M,SBD,New Zealand,Open,104.5,105,220,240,-247.5,240,137.5,145,-150,145,250,267.5,277.5,277.5,662.5,3
Mike Roberts #1,Raw,M,SBD,England,Open,102.9,105,205,215,-222.5,215,145,152.5,-157.5,152.5,250,265,-272.5,265,632.5,4
David Edwards,Raw,M,SBD,South Africa,Open,117.04,120,265,275,-280,275,195,202.5,-207.5,202.5,290,300,307.5,307.5,785,1
Adrian Locke,Raw,M,SBD,Canada,Open,115.2,120,272.5,292.5,-300,292.5,172.5,187.5,192.5,192.5,262.5,282.5,297.5,297.5,782.5,2
Garrett Cartwright-Bentley,Raw,M,SBD,Canada,Open,114.28,120,270,282.5,290,290,-175,175,182.5,182.5,270,282.5,-295,282.5,755,3
Kelly Branton,Raw,M,SBD,Canada,Open,154.81,120+,377.5,400,410,410,245,-256,256,256,-317.5,317.5,-337.5,317.5,983.5,1
Joseph Whittaker,Raw,M,SBD,New Zealand,Open,132.08,120+,315,332.5,340,340,197.5,205,-212.5,205,315,330,-340,330,875,2
Josh Simpson,Raw,M,SBD,Canada,Open,135.5,120+,275,285,295,295,162.5,217.5,227.5,227.5,265,285,-300,285,807.5,3
Christopher Hartwig,Raw,M,SBD,England,Open,130.63,120+,-250,250,265,265,170,175,-180,175,280,290,-297.5,290,730,4
Lewis Noppers,Raw,M,SBD,Canada,Masters 1,65.66,66,185,195,205,205,127.5,135.5,137.5,137.5,250,265.5,-278.5,265.5,608,1
Rob King,Raw,M,SBD,Canada,Masters 1,82.46,83,-185,185,195,195,125,130,135,135,215,225,237.5,237.5,567.5,1
David O'Brien,Raw,M,SBD,England,Masters 1,82.09,83,190,200,-205,200,127.5,-132.5,132.5,132.5,200,220,-232.5,220,552.5,2
Martin Smith #1,Raw,M,SBD,England,Masters 1,81.87,83,140,-152.5,-152.5,140,130,137.5,-140,137.5,160,170,182.5,182.5,460,3
Kevin Weiss,Raw,M,SBD,Canada,Masters 1,91.22,93,200,220,227.5,227.5,155,162.5,167.5,167.5,230,250,265,265,660,1
Sheridan Wray,Raw,M,SBD,England,Masters 1,92.41,93,205,212.5,217.5,217.5,175,178,180,180,240,252.5,262.5,262.5,660,2
Matt MacKay,Raw,M,SBD,Canada,Masters 1,92.67,93,197.5,210,215,215,135,-140,-140,135,242.5,250,255,255,605,3
Kieran Mischewski,Raw,M,SBD,New Zealand,Masters 1,90.69,93,185,197.5,200,200,117.5,122.5,-127.5,122.5,250,262.5,-265,262.5,585,4
Leon Brown,Raw,M,SBD,Canada,Masters 1,102.48,105,262.5,272.5,280.5,280.5,205,215,-222,215,270,-280,-280,270,765.5,1
Adrian Brown,Raw,M,SBD,Trinidad and Tobago,Masters 1,103.58,105,255,265,-275,265,155,165,-172.5,165,290,300,-307.5,300,730,2
Dave Keong,Raw,M,SBD,Australia,Masters 1,103.71,105,220,227.5,235,235,157.5,-162.5,-162.5,157.5,255,260,272.5,272.5,665,3
Dave Pigozzo,Raw,M,SBD,Canada,Masters 1,98.19,105,202.5,-212.5,212.5,212.5,132.5,140,142.5,142.5,235,242.5,252.5,252.5,607.5,4
Sani Sanileva,Raw,M,SBD,New Zealand,Masters 1,102.99,105,215,230,-240,230,135,145,152.5,152.5,215,-225,225,225,607.5,5
Graham McDonald,Raw,M,SBD,Australia,Masters 1,116.56,120,260,270,275,275,160,165,170,170,285,295,-302.5,295,740,1
Sam Opat,Raw,M,SBD,Australia,Masters 1,117.95,120,175,187.5,-192.5,187.5,132.5,137.5,-140,137.5,215,227.5,235,235,560,2
Ian Ryan,Raw,M,SBD,England,Masters 1,115.41,120,-170,170,-180,170,120,130,140,140,170,185,-200,185,495,3
Matthew Cosmo,Raw,M,SBD,South Africa,Masters 1,106.49,120,235,250,-270,250,170,-175,,170,240,260,-275,260,,DD
Juan Meyer,Raw,M,SBD,South Africa,Masters 1,150.93,120+,240,-250,-250,240,160,175,-190,175,240,270,-285,270,685,1
Brett Zoerb,Raw,M,SBD,Canada,Masters 2,73.21,74,160,167.5,-172.5,167.5,105,110,112.5,112.5,180,-195,195,195,475,1
Glen Chaytor,Raw,M,SBD,Canada,Masters 2,73.81,74,-170,170,177.5,177.5,100,-105,-105,100,185,192.5,-195,192.5,470,2
Sandro D'Angelo,Raw,M,SBD,Canada,Masters 2,82.52,83,205,-212.5,-212.5,205,120,125,127.5,127.5,235,245,-250,245,577.5,1
Grant Sugarman,Raw,M,SBD,England,Masters 2,82.08,83,170,180,-187.5,180,115,120,-125,120,230,-250,-250,230,530,2
Bob Hindley,Raw,M,SBD,Canada,Masters 2,74.41,83,165,-175,175,175,80,85,-90,85,215,227.5,232.5,232.5,492.5,3
Edwin G Spencer,Raw,M,SBD,Guyana,Masters 2,82.21,83,145,-170,-170,145,-90,90,-100,90,185,195,-200,195,430,4
John O'Riordan,Raw,M,SBD,England,Masters 2,87,93,140,150,-160,150,120,125,-130,125,180,-200,-200,180,455,1
Mark Giffin,Raw,M,SBD,Canada,Masters 2,117.73,120,250,-260,260,260,205,-212.5,-213,205,260,275,285,285,750,1
Kelvin Aitken,Raw,M,SBD,Australia,Masters 2,118.76,120,180,200,-210,200,145,152.5,-162.5,152.5,280,302.5,-305,302.5,655,2
André Ludik,Raw,M,SBD,South Africa,Masters 2,115.86,120,130,140,152.5,152.5,115,122.5,130,130,205,,,205,487.5,3
Tom Nicholls,Raw,M,SBD,Canada,Masters 2,125.65,120+,-262.5,-262.5,262.5,262.5,-185,185,196,196,275,292.5,-310,292.5,751,1
Jeff Madsen,Raw,M,SBD,New Zealand,Masters 3,58.7,59,-120,120,128,128,52.5,57.5,60,60,157.5,170.5,-175,170.5,358.5,1
Don Lovell,Raw,M,SBD,Canada,Masters 3,65.31,66,100,110,112.5,112.5,55,62.5,65,65,160,170,-180,170,347.5,1
Donald Carrieres,Raw,M,SBD,Canada,Masters 3,82.15,83,175,185,-190.5,185,122.5,130.5,133,133,195,205,-212.5,205,523,1
Bryan Barrett #1,Raw,M,SBD,New Zealand,Masters 3,91.7,93,165,175,180,180,95,105,-110,105,200,215,,215,500,1
Paul Francis,Raw,M,SBD,Canada,Masters 3,103.3,105,157.5,-167.5,167.5,167.5,-130,130,140,140,182.5,200,215.5,215.5,523,1
Jim Dulling,Raw,M,SBD,England,Masters 3,101.3,105,155,165,-177.5,165,105,110,-112.5,110,206,215,216,216,491,2
Grant Armour,Raw,M,SBD,Canada,Masters 3,118.22,120,160,-175,175,175,140,-150,-150,140,200,-210,-210,200,515,1
Bill Stevens,Raw,M,SBD,Canada,Masters 3,108.56,120,175,182.5,-187.5,182.5,107.5,112.5,117.5,117.5,180,190,197.5,197.5,497.5,2
Ernie Parkes,Raw,M,SBD,England,Masters 4,82.67,83,155,-165,165,165,85,90,-92.5,90,210,-225,-230,210,465,1
Clarry Parsons,Raw,M,SBD,New Zealand,Masters 4,81.44,83,140,150,160,160,85,90,-92.5,90,165,180,-190,180,430,2
Britny Mack,Single-ply,F,SBD,Guyana,Sub-Juniors,48.03,52,102.5,110,-125.5,110,40,45,-50,45,95,102.5,-107.5,102.5,257.5,1
Susie Butler,Single-ply,F,SBD,England,Juniors,59.78,63,135,145,152.5,152.5,77.5,82.5,-85,82.5,130,137.5,142.5,142.5,377.5,1
Robyn Ripley,Single-ply,F,SBD,Canada,Open,56.97,57,120,125,-130,125,87.5,-90,-105,87.5,155,165,172.5,172.5,385,1
Mel Ziffle,Single-ply,F,SBD,Canada,Open,60.05,63,180,187.5,192.5,192.5,105,110,-112.5,110,-175,175,-187.5,175,477.5,1
Mary Ann Kaczor,Single-ply,F,SBD,Canada,Open,68.63,72,175,-182.5,182.5,182.5,-112.5,112.5,117.5,117.5,175,182.5,-190,182.5,482.5,1
Lucy Cohen,Single-ply,F,SBD,Wales,Open,71.43,72,140,152.5,-157.5,152.5,80,90,97.5,97.5,130,140,150,150,400,2
Elizabeth Anderson,Single-ply,F,SBD,Canada,Open,75.61,84,115,-120,122.5,122.5,65,67.5,-70,67.5,152.5,-157.5,-157.5,152.5,342.5,1
Helen Allen,Single-ply,F,SBD,Australia,Masters 2,56.2,57,107.5,-112.5,-112.5,107.5,60,65,-67.5,65,155,165.5,-172.5,165.5,338,1
Vicki O'Brien,Single-ply,F,SBD,Australia,Masters 2,62.7,63,135,-145,-145,135,100.5,103,-105.5,103,182.5,-196,-200.5,182.5,420.5,1
Carol Brady,Single-ply,F,SBD,Canada,Masters 3,62.53,63,100,-107.5,-107.5,100,62.5,67.5,-70.5,67.5,102.5,110,-115,110,277.5,1
Susan Haywood,Single-ply,F,SBD,Canada,Masters 3,84.54,84+,-90,90,-100,90,42.5,47.5,50,50,100,-107.5,-107.5,100,240,1
Nantei Nikora,Single-ply,M,SBD,Kiribati,Juniors,58.59,59,150,-170,170,170,105,125,-150,125,175,200,-212.5,200,495,1
Rudolf Blackmon,Single-ply,M,SBD,Guyana,Juniors,76.07,83,260,-275,-282.5,260,155,160,165,165,260,-275,-275,260,685,1
Sameem Tak,Single-ply,M,SBD,Scotland,Juniors,81.96,83,180,-187.5,-192.5,180,140,160,167.5,167.5,-175,175,-177.5,175,522.5,2
Dhanushka Kodikara,Single-ply,M,SBD,Sri Lanka,Juniors,91.03,93,150,-200,200,200,100,135,-155,135,180,220,240,240,575,1
Osmond Mack,Single-ply,M,SBD,Guyana,Open,72.55,74,230,260,-272.5,260,125,145,-155,145,230,245,-260,245,650,1
Adam Ramzy,Single-ply,M,SBD,Canada,Open,82.42,83,325,335,337.5,337.5,232.5,-240,240,240,300,317.5,-320,317.5,895,1
Joel Ridings,Single-ply,M,SBD,Australia,Open,82.25,83,170,220,-250,220,90,130,-150,130,170,220,-320,220,570,2
Erwyn Smith,Single-ply,M,SBD,Guyana,Open,85.68,93,222.5,-230,-230,222.5,137.5,-145,-145,137.5,240,-252.5,-252.5,240,600,2
Marino Jeffrey,Single-ply,M,SBD,Guyana,Open,87.07,93,245,260,-272.5,260,145,165,-175,165,207.5,227.5,240,240,665,1
Karel Mars,Single-ply,M,SBD,Guyana,Open,100.14,105,-320,-320,320,320,182.5,202.5,-217.5,202.5,275,295,-310,295,817.5,1
Duncan Sharp,Single-ply,M,SBD,England,Open,104.17,105,-275,275,-290,275,190,202.5,-220,202.5,-230,230,-247.5,230,707.5,3
Brandon Ward,Single-ply,M,SBD,Canada,Open,96.93,105,245,260,270,270,170,180,-190,180,245,252.5,257.5,257.5,707.5,2
David Jame,Single-ply,M,SBD,Australia,Open,104.4,105,-320,-320,-320,,165,172.5,-180,172.5,280,297.5,312.5,312.5,,DQ
Mark Walker #1,Single-ply,M,SBD,England,Open,103.89,105,-277.5,-277.5,-277.5,,170,-172.5,-172.5,170,260,-272.5,-272.5,260,,DQ
Ransilu Jayathilake,Single-ply,M,SBD,Sri Lanka,Open,105.25,120,220,245,260,260,100,130,140,140,250,300,-307.5,300,700,1
Ryan Stinn,Single-ply,M,SBD,Canada,Open,141.92,120+,280,-295,-295,280,275,-285,285,285,290,320,-340,320,885,1
Gary Lewis,Single-ply,M,SBD,South Africa,Masters 1,92.16,93,220,240,-250,240,-160,-160,-160,,200,220,-240,220,,DQ
Joe Oliveira,Single-ply,M,SBD,Canada,Masters 1,102.77,105,300,310,-320,310,215,225,-230,225,-270,270,-275,270,805,1
Mathys Herbst,Single-ply,M,SBD,South Africa,Masters 1,140.61,120+,-270,270,295,295,-170,170,-190,170,270,290,300,300,765,1
Winston Stoby,Single-ply,M,SBD,Guyana,Masters 2,72.29,74,235,240,-245,240,132.5,-140,-140,132.5,265,-280,-280,265,637.5,1
Edwin G Spencer,Single-ply,M,SBD,Guyana,Masters 2,82.63,83,175,177.5,185,185,95,97.5,-100,97.5,185,195,200,200,482.5,1
Don Lovell,Single-ply,M,SBD,Canada,Masters 3,64.89,66,120,132.5,-145,132.5,40,-42.5,-42.5,40,165,177.5,185,185,357.5,1
John Rivers,Single-ply,M,SBD,New Zealand,Masters 3,91.15,93,160,170,180,180,120,125,-130,125,175,190,-205,190,495,1
Jim Dulling,Single-ply,M,SBD,England,Masters 3,103.37,105,100,,,100,100,,,100,205,-227.5,-227.5,205,405,1
Nairanjan Singh,Single-ply,M,SBD,Guyana,Masters 4,81.91,83,-122.5,122.5,-142.5,122.5,112.5,117.5,-120,117.5,160,170,-172.5,170,410,1
