Name,Sex,Age,Division,BodyweightKg,WeightClassKg,Squat1Kg,Squat2Kg,Squat3Kg,Best3SquatKg,Squat4Kg,Bench1Kg,Bench2Kg,Bench3Kg,Best3BenchKg,Bench4Kg,Deadlift1Kg,Deadlift2Kg,Deadlift3Kg,Best3DeadliftKg,Deadlift4Kg,TotalKg,Event,Equipment,BirthDate,Place
Jenny Law,F,50,FR-M2,59,60,,,,,,55,57.5,60,60,,,,,,,60,B,Raw,,1
Esther Kim,F,30,FR-O,66.3,67.5,,,,,,35,37.5,-42.5,37.5,,,,,,,37.5,B,Raw,,1
Melissa Maxey,F,43,FR-M1,74,75,,,,,,70,78,,78,,,,,,,78,B,Raw,,1
Liz Blackthorn,F,29,FR-O,81.8,82.5,,,,,,90,100,105,105,,,,,,,105,B,Raw,,1
Abbey Humble,F,27,FR-O,88.5,90,,,,,,50,55,58,58,-60,,,,,,58,B,Raw,,1
Shoned Hawksworth,F,41,FR-M1,93.2,90+,,,,,,45,50,-55,50,,,,,,,50,B,Raw,,1
Alex Ross,M,16,MR-T,76,82.5,,,,,,92.5,97.5,100,100,102.5,,,,,,100,B,Raw,,1
Casey Smits,M,32,MR-O,78.6,82.5,,,,,,145,150,153,153,-155,,,,,,153,B,Raw,,1
Kim Heta,M,51,MR-M2,113,125,,,,,,140,160,-170,160,,,,,,,160,B,Raw,,1
Phil Ross,M,50,MR-M2,138,140,,,,,,192.5,197.5,202.5,202.5,,,,,,,202.5,B,Raw,,1
Jenny Law,F,50,FR-M2,59,60,,,,,,,,,,,135,140,,140,,140,D,Raw,,1
Christa Swana,F,29,FR-O,65.9,67.5,,,,,,,,,,,110,120,130,130,,130,D,Raw,,1
Mia Johnson,F,16,FE-T,65.9,67.5,,,,,,,,,,,60,70,80,80,85,80,D,Single-ply,,1
Kristy McCarthy,F,39,FR-O,74.7,75,,,,,,,,,,,90,100,-107.5,100,,100,D,Raw,,3
Mel Baldacchino,F,26,FR-O,74.9,75,,,,,,,,,,,120,130,-135,130,,130,D,Raw,,2
Naomi Kolski,F,32,FR-O,71.8,75,,,,,,,,,,,120,130,140,140,,140,D,Raw,,1
Jess Ross,F,34,FR-O,89.1,90,,,,,,,,,,,120,130,-140,130,,130,D,Raw,,2
Abbey Humble,F,27,FR-O,88.5,90,,,,,,,,,,,120,130,140,140,,140,D,Raw,,1
Janelle Crouch,F,39,FR-O,127.1,90+,,,,,,,,,,,160,170,180,180,,180,D,Raw,,1
Melizza Burrell,F,45,FR-M1,92.7,90+,,,,,,,,,,,120,130,140,140,,140,D,Raw,,1
Lachlan Firth,M,21,MR-J,82.5,82.5,,,,,,,,,,,240,250,260,260,,260,D,Raw,,1
Lindsay Pennington,M,36,MR-O,97.1,100,,,,,,,,,,,200,220,237.5,237.5,,237.5,D,Raw,,1
Ehab Mohammad,M,27,ME-O,103.3,110,,,,,,,,,,,160,180,200,200,-210,200,D,Single-ply,,1
Simon Johnson,M,46,ME-M1,102.2,110,,,,,,,,,,,180,195,205,205,210,205,D,Single-ply,,1
Ryan Baldacchino,M,29,MR-O,118.5,125,,,,,,,,,,,180,200,220,220,,220,D,Raw,,1
Jim Panagiotidis,M,51,MR-M2,,60,100,107.5,-115,107.5,,95,-102.5,-105,95,,162.5,170,-175.5,170,,372.5,SBD,Wraps,,1
Neil Postlethwaite,M,41,ME-M1,82.1,82.5,170,180,-190,180,,175,182.5,-190,182.5,,220,230,,230,,592.5,SBD,Single-ply,,1
David Cutroni,M,27,MR-O,88.4,90,195,220,,220,,95,102.5,-105,102.5,,-190,210,-220,210,,532.5,SBD,Wraps,,1
Lewis Dowling,M,28,MR-O,98.8,100,280,-300,300,300,,160,170,180,180,,280,290,300,300,,780,SBD,Wraps,,1
Nathan Norman,M,28,MR-O,98.7,100,210,230,240,240,,125,140,-145,140,,230,250,260,260,,640,SBD,Wraps,,2
Samuel Forsberg,M,21,MR-J,97.1,100,215,225,-240,225,,125,135,-145,135,,255,275,290,290,,650,SBD,Wraps,,1
Thomas Piccinin,M,17,MR-SJ,96.9,100,205,-215,215,215,,125,-135,140,140,,200,220,235,235,,590,SBD,Wraps,,1
Vito Puopolo,M,42,MR-M1,96.7,100,200,220,230,230,,115,130,-140,130,,220,240,,240,,600,SBD,Wraps,,1
Chris Mallett,M,36,MR-O,108,110,215,225,235,235,,165,175,-185,175,,260,270,280,280,,690,SBD,Wraps,,1
Shannan Thompson,M,25,MR-O,101,110,285,300,-315,300,,,,,,,,,,,,,SBD,Wraps,,DQ
Brenden Skrnjug,M,23,MR-J,113,125,255,280,290,290,,-142.5,142.5,150,150,,245,265,-282.5,265,,705,SBD,Wraps,,1
Joe Zollo,M,63,MR-M3,120,125,220,230,240,240,,115,122.5,,122.5,,220,230,235,235,,597.5,SBD,Wraps,,1
David Vake Taufa,M,30,MR-O,161,140+,260,280,300,300,,140,160,170,170,,260,280,300,300,,770,SBD,Wraps,,1
Anna Parygina,F,50,FR-M2,57.5,60,,,,,,55,60,-62.5,60,,115,120,125,125,,185,BD,Raw,,2
Jenny Law,F,50,FR-M2,59,60,,,,,,57.5,-60,-63,57.5,,135,145,-150,145,,202.5,BD,Raw,,1
Emily Thistlethwaite,F,16,FR-T,63.6,67.5,,,,,,25,30,-32.5,30,,65,75,-82.5,75,,105,BD,Raw,,1
Louise Puopolo,F,41,FR-M1,65.6,67.5,,,,,,-50,50,-55,50,,130,145,-155.5,145,,195,BD,Raw,,1
Siobhan Green,F,35,FE-O,67.1,67.5,,,,,,75,-80,80,80,,140,150,160,160,165,240,BD,Single-ply,,1
Deborah Lowe,F,41,FR-M1,73.8,75,,,,,,100,105,-107.5,105,,-200,210,-220,210,,315,BD,Raw,,1
Janice Smith,F,30,FR-O,73.2,75,,,,,,60,62.5,65,65,,125,135,142.5,142.5,,207.5,BD,Raw,,1
Yvonne Odell,F,41,FR-M1,74.6,75,,,,,,37.5,40,-42.5,40,,90,100,-105,100,,140,BD,Raw,,2
Regan Della-Porta,F,47,FR-M1,105,90+,,,,,,37.5,40,45,45,,85,95,105,105,,150,BD,Raw,,1
Jim Panagiotidis,M,51,MR-M2,58.4,60,,,,,,90,,,90,,155,,,155,,245,BD,Raw,,1
Lachlan Firth,M,21,MR-J,82.5,82.5,,,,,,115,120,-125,120,,240,265,,265,,385,BD,Raw,,1
Brendan Upton,M,29,MR-O,89.3,90,,,,,,115,130,-135,130,,210,235,-255.5,235,,365,BD,Raw,,1
Michael Puopolo,M,41,MR-M1,89.3,90,,,,,,100,110,120,120,-125,160,180,-200,180,,300,BD,Raw,,1
Miki Mayer,M,44,MR-M1,107,110,,,,,,117.5,122.5,125.5,125.5,,205,215,220,220,,345.5,BD,Raw,,1
Ivan Rasic,M,29,MR-O,127,140,,,,,,80,90,100,100,,160,180,-200,180,,280,BD,Raw,,1
Claudia Gruber,F,20,FR-J,47,48,80,85,-87.5,85,,40,45,-47.5,45,,110,117.5,-120,117.5,,247.5,SBD,Wraps,,1
Chelsea-Lea Harbottle,F,21,FR-J,56.3,60,37.5,42.5,45,45,,27.5,30,32.5,32.5,,70,77.5,-82.5,77.5,,155,SBD,Wraps,,1
Kyna Leong,F,34,FR-O,59.7,60,110,120,130,130,,57.5,60,62.5,62.5,,140,150,155,155,,347.5,SBD,Wraps,,1
Sinead Martin,F,26,FE-O,59.1,60,125,135.5,140,140,-145,57.5,65,-72.5,65,,125,135,140,140,,345,SBD,Multi-ply,,1
Amy Monagle,F,28,FR-O,67.5,67.5,120,130,-135,130,,52.5,55,-57.5,55,,130,140,147.5,147.5,,332.5,SBD,Wraps,,1
Kacey Hiujer,F,36,FR-O,62,67.5,57.5,62.5,67.5,67.5,,30,35,37.5,37.5,,95,105,110,110,,215,SBD,Wraps,,2
Daniella Saliba,F,40,FE-M1,69,75,-100,120,140,140,,60,-65,65,65,,120,140,160,160,-170,365,SBD,Multi-ply,,1
Jessica Xuereb,F,27,FE-O,75,75,-125,125,-140,125,,-70.5,70.5,77.5,77.5,,125,140,145,145,150,347.5,SBD,Single-ply,,1
Laura Cvetkovski,F,36,FR-O,73.6,75,60,65,70,70,,-30,35,-40,35,,77.5,87.5,95,95,,200,SBD,Wraps,,2
Louise Heta,F,39,FR-O,75,75,125,140,150,150,,62.5,67.5,72.5,72.5,,125,-135,-135,125,,347.5,SBD,Wraps,,1
Melissa Maxey,F,43,FR-M1,74,75,165.5,-180,-180,165.5,,70,78,,78,,140,-165,-165,140,,383.5,SBD,Wraps,,1
Elle Theodorakopoulos,F,26,FR-O,81.5,82.5,80,90,100,100,,40,45,-47.5,45,,100,110,120,120,,265,SBD,Wraps,,4
Erwane De Swarte,F,33,FR-O,82.4,82.5,120,125,132.5,132.5,,65,67.5,72.5,72.5,,125,135,142.5,142.5,,347.5,SBD,Wraps,,1
Hayley Matthews,F,26,FR-O,82.5,82.5,-130,130,-142.5,130,,65,-72.5,72.5,72.5,,120,125,-130,125,,327.5,SBD,Wraps,,2
Joey-Anne Sixx,F,27,FR-O,81.6,82.5,100,110,120,120,,52.5,57.5,60,60,,115,125,135,135,,315,SBD,Wraps,,3
Emma Farrell,F,34,FR-O,87.5,90,120,130,140,140,,55,57.5,-60,57.5,,120,130,-135,130,,327.5,SBD,Wraps,,1
Alexandra Murray,F,23,FR-J,111,90+,100,107.5,115,115,-120,45,50.5,-55,50.5,,100,107.5,-115,107.5,,273,SBD,Wraps,,1
