Place,Name,BirthYear,Country,WeightClassKg,BodyweightKg,Squat1Kg,Squat2Kg,Squat3Kg,Best3SquatKg,Bench1Kg,Bench2Kg,Bench3Kg,Best3BenchKg,Deadlift1Kg,Deadlift2Kg,Deadlift3Kg,Best3DeadliftKg,TotalKg,Event,Equipment,Sex,Division,BirthDate
1,Dariusz Wszoła,1978,Poland,59,58.92,230,240,247.5,247.5,160,165,170,170,190,200,205,205,622.5,SBD,Single-ply,M,Open,
2,Jacopo Santangelo,1996,Italy,59,58.85,225,235,240,240,-127.5,-127.5,127.5,127.5,220,230,-255,230,597.5,SBD,Single-ply,M,Open,
3,Paweł Ośmiałowski,1977,Poland,59,58.95,190,200,210,210,140,150,-157.5,150,170,180,190,190,550,SBD,Single-ply,M,Open,
4,Oleksandr Ahadzhanian,1979,Ukraine,59,58.48,-190,-190,190,190,110,117.5,-122.5,117.5,180,192.5,-205,192.5,500,SBD,Single-ply,M,Open,
1,Hassan El Belghiti,1975,France,66,65.54,275,290,295,295,165,-170,170,170,295,310,-318.5,310,775,SBD,Single-ply,M,Open,
2,Antti Savolainen,1978,Finland,66,65.74,260,270,-275,270,-190,190,-200,190,270,-302.5,-302.5,270,730,SBD,Single-ply,M,Open,
3,Gheorghe Moise,1995,Romania,66,65.49,235,240,255,255,155,-165,-170,155,200,210,217.5,217.5,627.5,SBD,Single-ply,M,Open,
4,Bernie McGurk,1968,UK,66,65.39,227.5,-237.5,-237.5,227.5,-130,130,-135,130,245,257.5,-270,257.5,615,SBD,Single-ply,M,Open,
DQ,Mariusz Grotkowski,1989,Poland,66,65.67,-280,-280,-280,,,,,,,,,,,SBD,Single-ply,M,Open,
DQ,Kamil Iwasiów,1984,Poland,66,65.78,240,-255,-255,240,-170,-170,-170,,,,,,,SBD,Single-ply,M,Open,
1,Kjell Egil Bakkelund,1988,Norway,74,73.32,310,325,-340,325,215,225,235,235,300,315,-322.5,315,875,SBD,Single-ply,M,Open,
2,Diego Milani,1996,Italy,74,73.66,240,252.5,265,265,165,170,177.5,177.5,260,280,300,300,742.5,SBD,Single-ply,M,Open,
3,Eray Cingi,1993,Netherlands,74,73.7,265,277.5,285,285,165,170,172.5,172.5,262.5,-272.5,-272.5,262.5,720,SBD,Single-ply,M,Open,
4,Jan More,1993,Czechia,74,73.37,235,245,-252.5,245,165,170,177.5,177.5,225,240,250,250,672.5,SBD,Single-ply,M,Open,
5,Bogdan Pop,1997,Romania,74,72.78,190,210,215,215,140,150,-165,150,190,210,-220,210,575,SBD,Single-ply,M,Open,
DQ,Grégory Ostyn,2001,Belgium,74,73.67,-240,-240,-240,,155,165,-172.5,165,262.5,272.5,-282.5,272.5,,SBD,Single-ply,M,Open,
1,Vitalii Kolomiiets,1992,Ukraine,83,82.63,320,332.5,342.5,342.5,-225,225,-232.5,225,302.5,317.5,-327.5,317.5,885,SBD,Single-ply,M,Open,
2,Robert Palmer #2,1982,UK,83,82.68,320,-335,335,335,-225,-225,225,225,285,300,-327.5,300,860,SBD,Single-ply,M,Open,
3,Andriy Naniev,1984,Ukraine,83,82.6,325,335,-340,335,215,225,-232.5,225,275,-287.5,-287.5,275,835,SBD,Single-ply,M,Open,
4,Eetu Kumpulainen,1998,Finland,83,82.79,265,282.5,300,300,230,-250,250,250,265,-287.5,-287.5,265,815,SBD,Single-ply,M,Open,
5,Linus Hedberg,1981,Sweden,83,82.52,285,300,-307.5,300,205,-210,210,210,262.5,275,280,280,790,SBD,Single-ply,M,Open,
6,Simone Carniel,1990,Italy,83,82.13,-295,-300,305,305,195,200,-202.5,200,280,-302.5,-302.5,280,785,SBD,Single-ply,M,Open,
7,Manuel Gonnermann,1993,Germany,83,82.45,295,-310,310,310,180,190,-200,190,272.5,285,-290,285,785,SBD,Single-ply,M,Open,
8,Mickel Dahl Flensborg,1996,Denmark,83,82.89,285,300,-307.5,300,-170,170,-177.5,170,270,287.5,-302.5,287.5,757.5,SBD,Single-ply,M,Open,
9,Zdravko Petrov,1991,Bulgaria,83,82.63,-280,-285,285,285,-192.5,-192.5,192.5,192.5,240,255,-265,255,732.5,SBD,Single-ply,M,Open,
10,Milan Zeman,1995,Czechia,83,81.19,-250,250,-265,250,180,185,190,190,240,-250,,240,680,SBD,Single-ply,M,Open,
11,Andrei Nicolae Irimie,1990,Romania,83,82.49,205,215,,215,245,250,-260,250,190,212.5,-217.5,212.5,677.5,SBD,Single-ply,M,Open,
12,Tom Saunders,1989,UK,83,81.98,245,-260,-270,245,165,-175,-175,165,230,245,-252.5,245,655,SBD,Single-ply,M,Open,
DQ,Harri Olak,1992,Estonia,83,82.69,-290,-290,-297.5,,190,200,,200,300,307.5,-312.5,307.5,,SBD,Single-ply,M,Open,
DQ,Nickolaj Olsen,1994,Denmark,83,82.79,-270,270,-277.5,270,-157.5,-157.5,-160,,200,212.5,225,225,,SBD,Single-ply,M,Open,
1,Kostiantyn Musiienko,1997,Ukraine,93,91.31,350,375,-390,375,315,325,-330,325,275,292.5,300,300,1000,SBD,Single-ply,M,Open,
2,Nicki Lentz,1992,Denmark,93,92.75,390,-400.5,,390,270,280,285,285,292.5,302.5,307.5,307.5,982.5,SBD,Single-ply,M,Open,
3,Andreas Jandorek,1985,Austria,93,92.45,-305,-310,315,315,255,-260,-260,255,277.5,290,297.5,297.5,867.5,SBD,Single-ply,M,Open,
4,Sturla Abrahamsen Maeland,1980,Norway,93,92.46,315,325,330,330,232.5,-237.5,237.5,237.5,280,-282.5,295,295,862.5,SBD,Single-ply,M,Open,
5,Hugo Duarte,1990,UK,93,92.6,-315,-320,325,325,207.5,-215,-215,207.5,280,300,305,305,837.5,SBD,Single-ply,M,Open,
6,Antonio Gorga,1995,Italy,93,90.46,290,305,315,315,180,187.5,190,190,300,320,327.5,327.5,832.5,SBD,Single-ply,M,Open,
7,Jordan Ivanov,1994,Bulgaria,93,92.66,280,300,315,315,220,230,-240,230,270,287.5,-305,287.5,832.5,SBD,Single-ply,M,Open,
8,Alex Cambray Orrason,1989,Iceland,93,92.85,-305,310,325,325,190,-200,-200,190,250,262.5,272.5,272.5,787.5,SBD,Single-ply,M,Open,
9,Matt Watson #1,1991,UK,93,92.16,285,300,-307.5,300,190,195,-200,195,205,217.5,222.5,222.5,717.5,SBD,Single-ply,M,Open,
DQ,Philipp Schweda,1992,Germany,93,92.91,-320,320,-327.5,320,-255,-255,-255,,250,275,-280,275,,SBD,Single-ply,M,Open,
1,Sergii Bilyi,1990,Ukraine,105,104,375,-392.5,400,400,285,297.5,302.5,302.5,340,362.5,-375,362.5,1065,SBD,Single-ply,M,Open,
2,Oleksandr Rubets,1996,Ukraine,105,100.92,375,400,-412.5,400,265,275,-280,275,275,290,317.5,317.5,992.5,SBD,Single-ply,M,Open,
3,Asgeir Hoel,1989,Norway,105,104.55,370,380,392.5,392.5,250,-257.5,-257.5,250,325,340,-352.5,340,982.5,SBD,Single-ply,M,Open,
4,Allan Grenier,1990,France,105,104.17,350,362.5,-367.5,362.5,285,300,-305,300,280,300,312.5,312.5,975,SBD,Single-ply,M,Open,
5,Jeroen Van Heesvelde,1990,Belgium,105,104.48,325,340,350,350,257.5,265,-275,265,315,332.5,-337.5,332.5,947.5,SBD,Single-ply,M,Open,
6,Tomi Määttä,1982,Finland,105,104.5,-357.5,362.5,367.5,367.5,250,-260,260,260,280,292.5,-305,292.5,920,SBD,Single-ply,M,Open,
7,Kristián Slíž,1995,Slovakia,105,104.27,345,355,-365,355,-240,240,-252.5,240,305,-315,315,315,910,SBD,Single-ply,M,Open,
8,Valentino Durastanti,1992,Italy,105,99.85,340,352.5,365,365,192.5,197.5,200,200,310,330,-335,330,895,SBD,Single-ply,M,Open,
9,Jack Johnson,1998,UK,105,103.33,300,315,322.5,322.5,-235,235,245,245,300,320,-332.5,320,887.5,SBD,Single-ply,M,Open,
10,Margus Silbaum,1976,Estonia,105,104.67,360,-377.5,377.5,377.5,170,-175,,170,315,-335,335,335,882.5,SBD,Single-ply,M,Open,
11,Patryk Bolek,1994,Denmark,105,100.17,-325,325,-332.5,325,207.5,215,220,220,300,310,-332.5,310,855,SBD,Single-ply,M,Open,
12,Lieven De Saedeleer,1988,Belgium,105,100.43,305,312.5,,312.5,245,-272.5,-272.5,245,250,265,270,270,827.5,SBD,Single-ply,M,Open,
DQ,Oliver Dahlkvist,1995,Sweden,105,104.86,-385,-385,-385,,285,295,302.5,302.5,282.5,-300,-300,282.5,,SBD,Single-ply,M,Open,
1,Sofiane Belkesir,1984,France,120,114.97,400,410,417.5,417.5,-275,-275,275,275,330,345,357.5,357.5,1050,SBD,Single-ply,M,Open,
2,Viktor Leskovets,1990,Ukraine,120,108.65,375,390,-400,390,325,-340,-340,325,280,292.5,-302.5,292.5,1007.5,SBD,Single-ply,M,Open,
3,Christoph Seefeld,1980,Germany,120,119.19,345,360,-375,360,-290,-290,290,290,290,310,325,325,975,SBD,Single-ply,M,Open,
4,Casper Futtrup,1989,Denmark,120,119.41,355,367.5,375,375,-265,265,-272.5,265,275,-285,285,285,925,SBD,Single-ply,M,Open,
5,Samuel Lederleitner,1994,Slovakia,120,119.06,350,-360,-360,350,240,-252.5,-252.5,240,302.5,310,-322.5,310,900,SBD,Single-ply,M,Open,
6,Gernot Kasparek,1975,Austria,120,118.79,-312.5,325,-332.5,325,275,285,290,290,250,265,277.5,277.5,892.5,SBD,Single-ply,M,Open,
7,Jussi Kangasvieri,1987,Finland,120,107.6,320,335,340,340,227.5,235,240,240,302.5,310,-332.5,310,890,SBD,Single-ply,M,Open,
8,Milan Selinger,1984,Czechia,120,119.88,300,-312.5,-312.5,300,-285,285,292.5,292.5,260,275,-285,275,867.5,SBD,Single-ply,M,Open,
9,Alexandru Cazacu,1997,Romania,120,118.48,290,320,-327.5,320,200,225,-235,225,230,-250,-250,230,775,SBD,Single-ply,M,Open,
10,Roman Štěpánek,1998,Czechia,120,114.27,280,292.5,300,300,130,140,-152.5,140,230,245,,245,685,SBD,Single-ply,M,Open,
DQ,Dominik Pahl,1992,Germany,120,119.17,-385,-390,-390,,,,,,,,,,,SBD,Single-ply,M,Open,
1,Viktor Golinei,2000,Ukraine,120+,146.55,390,410,420,420,300,315,322.5,322.5,320,340,357.5,357.5,1100,SBD,Single-ply,M,Open,
2,Jaroslav Šoukal,1972,Czechia,120+,166.01,327.5,347.5,-357.5,347.5,-307.5,307.5,317.5,317.5,270,290,-305,290,955,SBD,Single-ply,M,Open,
3,Ranbir Singh Sahota,1983,UK,120+,132.89,-360,380,-390,380,-210,-220,220,220,280,295,-305,295,895,SBD,Single-ply,M,Open,
4,Jordan Bollard,1990,UK,120+,143.22,335,355,375,375,230,240,-250,240,255,270,-282.5,270,885,SBD,Single-ply,M,Open,
5,Daniel Ordean,1995,Romania,120+,150.47,320,-337.5,-337.5,320,255,260,-262.5,260,270,-300,-300,270,850,SBD,Single-ply,M,Open,
DQ,Konrad Bronicki,1982,Poland,120+,129.01,-400,-400,-400,,245,255,260,260,270,285,-300,285,,SBD,Single-ply,M,Open,
DQ,Florin Lupas Ionut,1989,Romania,120+,148.41,-392.5,392.5,-402.5,392.5,-312.5,-312.5,-312.5,,275,300,-310,300,,SBD,Single-ply,M,Open,
DQ,Ákos Labát,1995,Slovakia,120+,158.38,385,-402.5,402.5,402.5,-320,-320,-320,,300,310,-315,310,,SBD,Single-ply,M,Open,
DQ,Guðfinnur Snær Magnússon,1997,Iceland,120+,159.87,-390,-390,-410,,-300,-300,-300,,300,-310,-312.5,300,,SBD,Single-ply,M,Open,
1,Dmytro Butenko,2006,Ukraine,59,57.96,185,-200,200,200,100,-107.5,107.5,107.5,175,-187.5,-190,175,482.5,SBD,Single-ply,M,Sub-Juniors,
1,Jakub Bońkowski,2004,Poland,66,62.58,180,195,205,205,70,75,77.5,77.5,215,225,-235,225,507.5,SBD,Single-ply,M,Sub-Juniors,
2,Mykola Hodunov,2007,Ukraine,66,64.93,-190,190,-200,190,-92.5,92.5,-100,92.5,175,-190,-190,175,457.5,SBD,Single-ply,M,Sub-Juniors,
1,Šimon Falta,2004,Czechia,74,73.8,212.5,220,-225,220,120,-130,130,130,230,235,-247.5,235,585,SBD,Single-ply,M,Sub-Juniors,
2,Vladyslav Bilous,2006,Ukraine,74,69.89,215,227.5,237.5,237.5,125,-130,-130,125,207.5,220,-230,220,582.5,SBD,Single-ply,M,Sub-Juniors,
DQ,Vasyl' Zbandut,2006,Ukraine,74,73.6,-250,-250,-250,,115,-122.5,122.5,122.5,220,232.5,240,240,,SBD,Single-ply,M,Sub-Juniors,
1,David Rubets,2005,Ukraine,83,75.99,240,252.5,-260,252.5,142.5,-152.5,155,155,200,210,212.5,212.5,620,SBD,Single-ply,M,Sub-Juniors,
2,David Horník,2004,Czechia,83,80.9,185,200,210,210,160,167.5,-170,167.5,185,200,-212.5,200,577.5,SBD,Single-ply,M,Sub-Juniors,
3,Gabriel Ryś,2004,Poland,83,81.93,205,-225,-232.5,205,140,150,-155,150,190,202.5,-225,202.5,557.5,SBD,Single-ply,M,Sub-Juniors,
DQ,Sebastian Sivak,2005,Slovakia,83,80.8,205,-215,215,215,100,-110,110,110,-210,-210,-210,,,SBD,Single-ply,M,Sub-Juniors,
1,Tomáš Zahradníček,2004,Czechia,93,86.88,220,230,240,240,125,-132.5,132.5,132.5,245,250,255,255,627.5,SBD,Single-ply,M,Sub-Juniors,
2,Viktor Hubáček,2004,Czechia,93,87.33,190,202.5,-210,202.5,150,155,-160,155,245,262.5,-272.5,262.5,620,SBD,Single-ply,M,Sub-Juniors,
3,Gracjan Pieper,2006,Poland,93,90.9,-210,210,-212.5,210,145,-150,150,150,205,210,215,215,575,SBD,Single-ply,M,Sub-Juniors,
4,Dominik Held,2004,Slovakia,93,84.76,-220,-220,220,220,130,132.5,135,135,190,-210,-210,190,545,SBD,Single-ply,M,Sub-Juniors,
1,Carl Henrik Ted Erik Hogstrom,2004,Estonia,105,104.43,200,215,225,225,-160,162.5,172.5,172.5,220,240,255,255,652.5,SBD,Single-ply,M,Sub-Juniors,
1,Volodymyr Iltsev,2004,Ukraine,120,105.41,-270,270,-290,270,100,145,-160,145,200,220,240,240,655,SBD,Single-ply,M,Sub-Juniors,
1,Jakub Zavodny,2004,Slovakia,120+,138.45,250,-260,,250,-200,200,210,210,200,210,,210,670,SBD,Single-ply,M,Sub-Juniors,
DQ,Jan Tuszyński,2006,Poland,120+,126.25,257.5,-270,-270,257.5,-145,-150,-150,,220,240,-242.5,240,,SBD,Single-ply,M,Sub-Juniors,
1,Andrei Georgescu,2002,Romania,53,52.9,140,160,-180,160,90,102.5,-107.5,102.5,160,180,200,200,462.5,SBD,Single-ply,M,Juniors,
1,Viliam Kováč,2000,Czechia,59,58.8,205,215,220,220,115,130,-135,130,210,-220,-220,210,560,SBD,Single-ply,M,Juniors,
2,Rostyslav Kinishchuk,1999,Ukraine,59,58.98,170,180,-187.5,180,147.5,157.5,162.5,162.5,180,190,-195,190,532.5,SBD,Single-ply,M,Juniors,
3,Cristian Moise,2001,Romania,59,57.44,180,190,195,195,100,115,-120,115,180,190,-195,190,500,SBD,Single-ply,M,Juniors,
1,Radosław Dębicki,2001,Poland,66,65.82,220,230,-235,230,150,157.5,-162.5,157.5,220,227.5,-232.5,227.5,615,SBD,Single-ply,M,Juniors,
2,Hubert Zaręba,1999,Poland,66,65.22,225,-235,-235,225,115,122.5,127.5,127.5,225,240,-252.5,240,592.5,SBD,Single-ply,M,Juniors,
3,Matěj Vojtěch,2001,Czechia,66,65.59,170,175,182.5,182.5,122.5,127.5,-132.5,127.5,205,-210,-210,205,515,SBD,Single-ply,M,Juniors,
1,Elias Brandecker,1999,Austria,74,72.94,240,255,-262.5,255,145,-155,155,155,222.5,235,-282.5,235,645,SBD,Single-ply,M,Juniors,
2,Teodor Eriksson,1999,Sweden,74,73.54,225,-232.5,-232.5,225,170,177.5,-182.5,177.5,220,232.5,-245,232.5,635,SBD,Single-ply,M,Juniors,
DQ,Nojus Čypas,2000,Lithuania,74,72.18,235,242.5,,242.5,140,152.5,,152.5,-295,-295,-295,,,SBD,Single-ply,M,Juniors,
1,Ludvik Moen,2002,Norway,83,82.45,280,295,302.5,302.5,175,185,192.5,192.5,242.5,262.5,272.5,272.5,767.5,SBD,Single-ply,M,Juniors,
2,Davide Cecchetti,2002,Italy,83,82.74,280,-295,-295,280,-195,200,205,205,250,-262.5,-262.5,250,735,SBD,Single-ply,M,Juniors,
3,Kevin Schmid,2000,Austria,83,80.95,250,260,265,265,210,-215,-215,210,225,242.5,-260,242.5,717.5,SBD,Single-ply,M,Juniors,
4,Simon Konjhodzic Björndahl,1999,Sweden,83,82.9,225,235,-245,235,-152.5,152.5,157.5,157.5,250,265,-275,265,657.5,SBD,Single-ply,M,Juniors,
5,Vojtěch Kij,2003,Czechia,83,81.38,200,210,-220,210,140,147.5,152.5,152.5,180,192.5,-200,192.5,555,SBD,Single-ply,M,Juniors,
DQ,Maciej Zastawny,2000,Poland,83,82.38,-255,-255,-255,,190,195,-200,195,232.5,-250,-250,232.5,,SBD,Single-ply,M,Juniors,
1,Ondřej Šíp,2002,Czechia,93,92.72,-310,310,322.5,322.5,200,-210,210,210,280,290,297.5,297.5,830,SBD,Single-ply,M,Juniors,
2,Damian Szczepański,2000,Poland,93,91.9,310,320,330,330,230,-240,-240,230,240,255,265,265,825,SBD,Single-ply,M,Juniors,
3,Bartłomiej Molga,2001,Poland,93,89.89,300,310,-320,310,175,180,185,185,260,270,-275,270,765,SBD,Single-ply,M,Juniors,
4,Kristian Filip Jakubec,2001,Slovakia,93,92.4,280,295,-302.5,295,175,182.5,-187.5,182.5,265,272.5,-290,272.5,750,SBD,Single-ply,M,Juniors,
5,Ondřej Smetaník,2003,Czechia,93,91.33,245,260,267.5,267.5,-185,185,195,195,235,-250,250,250,712.5,SBD,Single-ply,M,Juniors,
6,David Warnquist,2002,Sweden,93,92.88,247.5,260,270,270,207.5,215,-220,215,212.5,225,-230,225,710,SBD,Single-ply,M,Juniors,
1,Paul Bejenariu,2001,Romania,105,101.85,-277.5,285,287.5,287.5,-242.5,242.5,250,250,267.5,277.5,282.5,282.5,820,SBD,Single-ply,M,Juniors,
2,Mark Dolzhenko,2002,Ukraine,105,99.62,290,310,320,320,200,210,220,220,260,-272.5,-275,260,800,SBD,Single-ply,M,Juniors,
3,Martin Bach Thomsen,2002,Denmark,105,103.6,-270,270,287.5,287.5,215,-222.5,222.5,222.5,245,257.5,262.5,262.5,772.5,SBD,Single-ply,M,Juniors,
DQ,Mateusz Szymkiewicz,2001,Poland,105,102.96,335,345,-355,345,-232.5,-235,-237.5,,270,-280,-280,270,,SBD,Single-ply,M,Juniors,
1,Dmytro Holinei,2001,Ukraine,120,118.85,-315,320,-340,320,200,215,222.5,222.5,275,295,307.5,307.5,850,SBD,Single-ply,M,Juniors,
2,Jaroslav Halač,2000,Slovakia,120,108.32,-310,310,-320,310,210,217.5,222.5,222.5,290,297.5,-307.5,297.5,830,SBD,Single-ply,M,Juniors,
3,Jan Blecha,2001,Czechia,120,111.1,215,235,-245,235,135,145,-152.5,145,180,200,-207.5,200,580,SBD,Single-ply,M,Juniors,
DQ,Lasse Justesen,2000,Denmark,120,109.15,280,295,-302.5,295,-190,-190,-190,,250,260,-265,260,,SBD,Single-ply,M,Juniors,
1,Denis Kurečka,1999,Czechia,120+,144.49,265,280,290,290,245,-260,-260,245,270,285,-300,285,820,SBD,Single-ply,M,Juniors,
2,Dominik Plaskonis,2000,Slovakia,120+,122.33,300,320,-335,320,-210,-210,210,210,270,-285,-292.5,270,800,SBD,Single-ply,M,Juniors,
3,Šimon Král,2002,Czechia,120+,123.9,-300,315,325,325,162.5,-172.5,-172.5,162.5,270,305,-315,305,792.5,SBD,Single-ply,M,Juniors,
4,Philippe Parage,2001,Luxembourg,120+,121.3,290,300,310,310,-177.5,180,182.5,182.5,270,280,285,285,777.5,SBD,Single-ply,M,Juniors,
1,Lisette I Hansen,1989,Denmark,47,46.76,140,152.5,-157.5,152.5,-80,82.5,87.5,87.5,150,160,-162.5,160,400,SBD,Single-ply,F,Open,
2,Daniela Stroe,1999,Romania,47,46.18,80,90,-100,90,50,60,,60,100,110,-120,110,260,SBD,Single-ply,F,Open,
1,Karen Hesthammer,1994,Norway,52,51.45,180,190,197.5,197.5,105,107.5,112.5,112.5,160,170,180,180,490,SBD,Single-ply,F,Open,
2,Paulina Szymanel,1995,Poland,52,51.16,180,-185,185,185,-117.5,-117.5,117.5,117.5,170,177.5,-187.5,177.5,480,SBD,Single-ply,F,Open,
3,Emma Goodwin,1987,UK,52,51.44,170,175,-180,175,75,80,-82.5,80,175,185,193,193,448,SBD,Single-ply,F,Open,
4,Sandrine Quignaudon,1991,Sweden,52,51.4,152.5,160,-165,160,90,-95,-95,90,145,150,155,155,405,SBD,Single-ply,F,Open,
5,Margarita Kirilova,1997,Bulgaria,52,51.98,120,127.5,135,135,57.5,62.5,-67.5,62.5,130,137.5,-140,137.5,335,SBD,Single-ply,F,Open,
DQ,Gerlyn Mäepea,1993,Estonia,52,51.64,-147.5,152.5,-160,152.5,-122.5,-122.5,-122.5,,137.5,-150,-150,137.5,,SBD,Single-ply,F,Open,
1,Ellie Steel,1991,UK,57,56.79,190,197.5,202.5,202.5,125,132.5,137.5,137.5,160,172.5,182.5,182.5,522.5,SBD,Single-ply,F,Open,
2,Sabrina Mancini,1994,Italy,57,56.14,175,185,192.5,192.5,100,105,-107.5,105,170,177.5,190,190,487.5,SBD,Single-ply,F,Open,
3,Mélodie Anthouard,1988,France,57,56.87,180,187.5,192.5,192.5,125,132.5,137.5,137.5,150,157.5,-162.5,157.5,487.5,SBD,Single-ply,F,Open,
4,Laura Savolainen,1989,Sweden,57,55.5,155,-162.5,162.5,162.5,-115,115,120,120,172.5,180,-192.5,180,462.5,SBD,Single-ply,F,Open,
5,Eva Buxbom,1969,Denmark,57,56.35,165,175,180,180,65,90,92.5,92.5,167.5,177.5,-182.5,177.5,450,SBD,Single-ply,F,Open,
6,Mélodie Darmon,1997,France,57,56.69,-160,160,170,170,100,105,-110,105,-160,160,167.5,167.5,442.5,SBD,Single-ply,F,Open,
7,Manuela Cinquatti,1995,Italy,57,55.79,165,-180,-180,165,67.5,72.5,77.5,77.5,175,185,-195,185,427.5,SBD,Single-ply,F,Open,
1,Lena Sjøl,1997,Norway,63,61.96,197.5,-205,205,205,112.5,-117.5,-117.5,112.5,182.5,195,200,200,517.5,SBD,Single-ply,F,Open,
2,Radostina Lulova,1993,Bulgaria,63,62.28,190,202.5,207.5,207.5,87.5,92.5,-97.5,92.5,190,200,202.5,202.5,502.5,SBD,Single-ply,F,Open,
3,Lisa Schlagbauer,1996,Germany,63,62.57,175,182.5,-190,182.5,-110,110,-115,110,185,192.5,200,200,492.5,SBD,Single-ply,F,Open,
4,Ruth Viehauser,1988,Austria,63,62.21,177.5,-187.5,187.5,187.5,105,-110,-110,105,182.5,-190,192.5,192.5,485,SBD,Single-ply,F,Open,
5,Kathleen Compagnie,1980,Belgium,63,62.82,155,-162.5,162.5,162.5,-107.5,-110,110,110,145,155,-162.5,155,427.5,SBD,Single-ply,F,Open,
6,Ľubica Polkorábová,1988,Slovakia,63,62.19,150,160,-167.5,160,-110,110,115,115,120,130,135,135,410,SBD,Single-ply,F,Open,
1,Eline Skalleberg,1986,Norway,69,67.77,225,232.5,240,240,150,-152.5,-155,150,200,210,215,215,605,SBD,Single-ply,F,Open,
2,Cathrin Monika Silberzahn,1988,Germany,69,68.13,230,240,-245,240,137.5,-142.5,142.5,142.5,190,202.5,210,210,592.5,SBD,Single-ply,F,Open,
3,Ingvild Hansen,1994,Norway,69,66.82,190,195,200,200,-145,145,-152.5,145,185,190,-195,190,535,SBD,Single-ply,F,Open,
4,Ines Kahrer,1996,Austria,69,67.64,210,217.5,-222.5,217.5,130,135,-140,135,175,180,-190,180,532.5,SBD,Single-ply,F,Open,
5,Frida Sundström,1989,Sweden,69,67.52,197.5,205,210,210,97.5,102.5,-105,102.5,195,207.5,210,210,522.5,SBD,Single-ply,F,Open,
6,Kathrine Holmgaard Bak,1981,Denmark,69,66.69,-170,170,182.5,182.5,107.5,112.5,-115,112.5,212.5,-220,220,220,515,SBD,Single-ply,F,Open,
7,Marie Hauschild,1995,Germany,69,66.38,200,-210,210,210,-120,122.5,-130,122.5,160,170,-177.5,170,502.5,SBD,Single-ply,F,Open,
8,Giulia Semeraro,1995,Italy,69,68.03,190,-210,-210,190,110,117.5,125,125,170,-185,-185,170,485,SBD,Single-ply,F,Open,
9,Angharad Fraser-Williams,1991,UK,69,66.9,160,165,170,170,77.5,82.5,87.5,87.5,167.5,172.5,180,180,437.5,SBD,Single-ply,F,Open,
10,Ioana Petcu,1997,Romania,69,67.25,140,145,,145,60,70,-80,70,130,140,-150,140,355,SBD,Single-ply,F,Open,
1,Marte Elverum,1990,Norway,76,75.12,230,237.5,245,245,140,-145,145,145,237.5,250,-255,250,640,SBD,Single-ply,F,Open,
2,Francesca Parrello,1994,Italy,76,75.86,237.5,247.5,260.5,260.5,125,132.5,140,140,227.5,237.5,-247.5,237.5,638,SBD,Single-ply,F,Open,
3,Sheri Miles,1986,UK,76,75.22,195,205,-210,205,110,120,-125,120,200,220,225,225,550,SBD,Single-ply,F,Open,
4,Karmen Kaljula,1994,Estonia,76,70.98,175,187.5,200,200,-150,150,155,155,180,192.5,-197.5,192.5,547.5,SBD,Single-ply,F,Open,
5,Frida Wik,1991,Sweden,76,74.87,200,-207.5,207.5,207.5,-140,140,-145,140,200,-205,-205,200,547.5,SBD,Single-ply,F,Open,
6,Julie Albrecht Hansen,1991,Denmark,76,75.49,195,205,-210,205,142.5,147.5,-152.5,147.5,170,180,185,185,537.5,SBD,Single-ply,F,Open,
7,Katja Broxtermann,1986,Germany,76,71.43,-210,210,-215,210,140,-145,145,145,150,165,175,175,530,SBD,Single-ply,F,Open,
8,Teresa Mastroianni,1990,Italy,76,73.12,200,212.5,-217.5,212.5,120,-130,-132.5,120,170,177.5,182.5,182.5,515,SBD,Single-ply,F,Open,
9,Sofia Walter,1996,Germany,76,74.01,195,205,215,215,115,122.5,-127.5,122.5,150,160,167.5,167.5,505,SBD,Single-ply,F,Open,
10,Amy Spencer,1993,UK,76,75.48,200,-205,-207.5,200,-110,-110,110,110,155,167.5,172.5,172.5,482.5,SBD,Single-ply,F,Open,
1,Sonja Stefanie Krüger,1999,Germany,84,76.03,260,-275,275,275,-210,-210,210,210,170,190,200,200,685,SBD,Single-ply,F,Open,
2,Ankie Timmers,1986,Netherlands,84,81.47,220,227.5,232.5,232.5,175,180,-182.5,180,195,205,212.5,212.5,625,SBD,Single-ply,F,Open,
3,Valérie von Gleichen,1992,Germany,84,83.65,245,252.5,-262.5,252.5,122.5,127.5,132.5,132.5,195,202.5,212.5,212.5,597.5,SBD,Single-ply,F,Open,
4,Heidi Hille Arnesen,1970,Norway,84,83.9,240,-245,245,245,-142.5,142.5,-147.5,142.5,195,205,210,210,597.5,SBD,Single-ply,F,Open,
5,Christie Civetta,1992,UK,84,83.52,210,222.5,-230,222.5,130,135,-140,135,170,185,195,195,552.5,SBD,Single-ply,F,Open,
6,Sofia Kamlund,1990,Sweden,84,81.69,215,-222.5,-222.5,215,135,140,142.5,142.5,175,185,192.5,192.5,550,SBD,Single-ply,F,Open,
7,Lise Frederiksen,1982,Denmark,84,82.4,-222.5,222.5,230,230,120,125,-130,125,175,190,-197.5,190,545,SBD,Single-ply,F,Open,
8,Hannah-Louise Graham,1997,UK,84,82.35,165,177.5,-182.5,177.5,90,95,100,100,180,200,207.5,207.5,485,SBD,Single-ply,F,Open,
1,Hildeborg Juvet Hugdal,1983,Norway,84+,118.57,245,250,260,260,217.5,-222.5,228,228,185,192.5,200,200,688,SBD,Single-ply,F,Open,
2,Sóley Margrét Jónsdóttir,2001,Iceland,84+,126.75,250,270,280,280,170,-185,185,185,190,-210,210,210,675,SBD,Single-ply,F,Open,
3,Amalie Sophie Nielsen,1994,Denmark,84+,114.61,227.5,235,-240,235,132.5,137.5,140,140,187.5,197.5,202.5,202.5,577.5,SBD,Single-ply,F,Open,
4,Kate Sweatman,1985,UK,84+,125.84,-215,-215,215,215,180,187.5,-200,187.5,150,162.5,-172.5,162.5,565,SBD,Single-ply,F,Open,
5,Anna Karolin,1987,Estonia,84+,89.83,160,170,180,180,127.5,-135,-135,127.5,150,-160,165,165,472.5,SBD,Single-ply,F,Open,
DQ,Amalie Larsson,1992,Denmark,84+,92,235,250,260,260,-120,-120,-120,,205,220,,220,,SBD,Single-ply,F,Open,
1,Khrystyna Ulianyk,2005,Ukraine,43,39.41,85,90,-95,90,40,42.5,-45,42.5,70,75,80,80,212.5,SBD,Single-ply,F,Sub-Juniors,
1,Marcelina Owsiany,2004,Poland,47,47,80,90,105,105,60,-70,-70,60,110,115,120,120,285,SBD,Single-ply,F,Sub-Juniors,
1,Wiktoria Cichocka,2004,Poland,52,50.98,142.5,-150,-150,142.5,75,77.5,-80,77.5,-130,135,142.5,142.5,362.5,SBD,Single-ply,F,Sub-Juniors,
2,Katriin Sildnik,2004,Estonia,52,51.68,100,-112.5,112.5,112.5,50,55,-62.5,55,110,122.5,130,130,297.5,SBD,Single-ply,F,Sub-Juniors,
3,Ivana Griflikova,2005,Slovakia,52,49.75,65,70,75,75,40,42.5,45,45,85,-95,95,95,215,SBD,Single-ply,F,Sub-Juniors,
1,Sofiya Stanko,2006,Ukraine,57,55.43,-150,-150,150,150,90,95,100,100,120,127.5,-135,127.5,377.5,SBD,Single-ply,F,Sub-Juniors,
2,Rehina Fursenko,2006,Ukraine,57,56.85,115,122.5,127.5,127.5,62.5,67.5,-72.5,67.5,112.5,117.5,120,120,315,SBD,Single-ply,F,Sub-Juniors,
3,Martyna Janaszek,2005,Poland,57,56.51,90,105,115,115,55,65,70,70,110,115,122.5,122.5,307.5,SBD,Single-ply,F,Sub-Juniors,
4,Bianca Todorescu,2006,Romania,57,53.84,-107.5,107.5,115,115,65,70,72.5,72.5,100,110,117.5,117.5,305,SBD,Single-ply,F,Sub-Juniors,
1,Mariia Zbandut,2008,Ukraine,63,60.76,150,165,175,175,90,-100,-100,90,125,135,137.5,137.5,402.5,SBD,Single-ply,F,Sub-Juniors,
2,Mariya Kozir,2004,Ukraine,63,62.94,135,140,-145,140,-100,100,110,110,140,145,-155,145,395,SBD,Single-ply,F,Sub-Juniors,
3,Emilia Gryczan,2006,Poland,63,57.26,-122.5,-122.5,122.5,122.5,57.5,-60,-60,57.5,115,-125,125,125,305,SBD,Single-ply,F,Sub-Juniors,
1,Adéla Čtveráková,2004,Czechia,69,68.73,100,107.5,112.5,112.5,52.5,57.5,62.5,62.5,125,130,135,135,310,SBD,Single-ply,F,Sub-Juniors,
1,Ivanna Holinei,2007,Ukraine,76,73.34,135,145,-160,145,75,77.5,85,85,115,130,-140,130,360,SBD,Single-ply,F,Sub-Juniors,
2,Julia Dziwosz,2004,Poland,76,72.46,105,-115,,105,60,-92.5,92.5,92.5,85,95,-107.5,95,292.5,SBD,Single-ply,F,Sub-Juniors,
1,Marelin Jüriado,2006,Estonia,84,81.04,165,172.5,180,180,90,95,100,100,185,195,,195,475,SBD,Single-ply,F,Sub-Juniors,
2,Tossavainen Siiri,2004,Finland,84,81.6,125,140,150,150,65,70,-72.5,70,145,160,-170,160,380,SBD,Single-ply,F,Sub-Juniors,
3,Reda Laurinavičiūtė,2007,Lithuania,84,81.66,127.5,135,-137.5,135,80,-85,85,85,140,147.5,152.5,152.5,372.5,SBD,Single-ply,F,Sub-Juniors,
1,Lampela Rosanna,2004,Finland,84+,90.02,140,155,-160,155,90,92.5,95,95,142.5,147.5,-152.5,147.5,397.5,SBD,Single-ply,F,Sub-Juniors,
2,Valerija Petrovaitė,2005,Lithuania,84+,104,155,165,-170,165,87.5,92.5,95,95,105,112.5,120,120,380,SBD,Single-ply,F,Sub-Juniors,
3,Natalia Selwiak,2005,Poland,84+,97.88,115,122.5,130,130,90,-97.5,97.5,97.5,135,145,-152.5,145,372.5,SBD,Single-ply,F,Sub-Juniors,
4,Pille Pihlik,2005,Estonia,84+,91.49,135,145,-150,145,65,-75,75,75,110,130,132.5,132.5,352.5,SBD,Single-ply,F,Sub-Juniors,
1,Oksana Sukhodieieva,2001,Ukraine,43,42.34,95,-105,-105,95,45,55,65,65,90,-102.5,-102.5,90,250,SBD,Single-ply,F,Juniors,
1,Zuzanna Kula,1999,Poland,52,51.22,-190,190,-195.5,190,-120,120,128,128,137.5,147.5,-155,147.5,465.5,SBD,Single-ply,F,Juniors,
2,Denisa Turková,2003,Czechia,52,52,135,145,-150,145,70,75,-77.5,75,115,125,-135,125,345,SBD,Single-ply,F,Juniors,
3,Alexandra Cazacu,2003,Romania,52,51.65,-130,130,-137.5,130,45,50,-52.5,50,120,130,135,135,315,SBD,Single-ply,F,Juniors,
1,Emily Finnern,2000,Germany,57,56.75,180,190,195,195,125,130,135,135,160,170,-175,170,500,SBD,Single-ply,F,Juniors,
2,Anna Marková,2003,Czechia,57,56.47,-130,-130,130,130,60,-65,-65,60,137.5,-145,,137.5,327.5,SBD,Single-ply,F,Juniors,
1,Marthe Tjelta,1999,Norway,63,62.28,187.5,197.5,202.5,202.5,112.5,117.5,122.5,122.5,172.5,-175,182.5,182.5,507.5,SBD,Single-ply,F,Juniors,
2,Natália Mikulášová,1999,Slovakia,63,60.54,140,-157.5,-160,140,100,112.5,-117.5,112.5,130,152.5,-157.5,152.5,405,SBD,Single-ply,F,Juniors,
DQ,Laura Selita,1999,Italy,63,61.68,-200,-200,-200,,110,115,-120,115,170,-180,180,180,,SBD,Single-ply,F,Juniors,
1,Juliane Slettnes,2001,Norway,69,68.49,202.5,-210,210,210,120,125,130,130,175,185,193,193,533,SBD,Single-ply,F,Juniors,
2,Natalia Świstara,1999,Poland,69,65.74,150,160,-165,160,90,-95,-95,90,150,157.5,160,160,410,SBD,Single-ply,F,Juniors,
3,Adriana Holubová,2001,Czechia,69,64.68,130,137.5,145,145,105,-112.5,-115,105,140,150,157.5,157.5,407.5,SBD,Single-ply,F,Juniors,
4,Olívia Lapšanská,2003,Slovakia,69,68.14,155,162.5,170,170,72.5,-77.5,77.5,77.5,145,-155,-155,145,392.5,SBD,Single-ply,F,Juniors,
5,Anna Komarkova,2003,Czechia,69,67.61,130,-137.5,-137.5,130,70,80,-85,80,117.5,127.5,135,135,345,SBD,Single-ply,F,Juniors,
DQ,Julia Bilicka,2002,Poland,69,67.76,160,167.5,-175,167.5,-85,-85,-87.5,,-175,180,-190,180,,SBD,Single-ply,F,Juniors,
1,Wiktoria Sieczka,2003,Poland,76,74.03,-210,210,-220,210,110,115,120,120,150,165,170,170,500,SBD,Single-ply,F,Juniors,
2,Eliise Mikomägi,2003,Estonia,76,74.75,175,-185,-190,175,-105,105,-112.5,105,187.5,200,-222.5,200,480,SBD,Single-ply,F,Juniors,
3,Alona Borshchevska,1999,Ukraine,76,75.11,175,-187.5,190,190,107.5,115,-120,115,152.5,165,-177.5,165,470,SBD,Single-ply,F,Juniors,
4,Paulina Białecka,2002,Poland,76,69.02,115,125,-132.5,125,75,-80,80,80,115,127.5,-135,127.5,332.5,SBD,Single-ply,F,Juniors,
1,Agata Sitko,2002,Poland,84,77.9,-265,265,-275,265,-180,180,188,188,235,245,251.5,251.5,704.5,SBD,Single-ply,F,Juniors,
2,Patricia Slizova,2001,Slovakia,84,82.48,150,165,177.5,177.5,90,95,100,100,125,135,140,140,417.5,SBD,Single-ply,F,Juniors,
1,Viktoriia Kostiuk,2000,Ukraine,84+,92.27,180,200,210,210,75,87.5,95,95,140,160,-167.5,160,465,SBD,Single-ply,F,Juniors,
DQ,Karolina Kołata,1999,Poland,84+,98.99,-190,-190,-192.5,,80,-150,150,150,160,165,-170,165,,SBD,Single-ply,F,Juniors,
