Division,WeightClassKg,Place,Name,Team,BodyweightKg,Best3SquatKg,Best3BenchKg,Best3DeadliftKg,TotalKg,Equipment,Event,Sex
Boys,51.71,1,Thomas Soto,Corpus Christi Calallen,51.44,188.24,92.99,210.92,492.15,Single-ply,SBD,M
Boys,55.79,2,Robert Chapa,Gregory-Portland,51.89,179.17,95.25,190.51,464.93,Single-ply,SBD,M
Boys,55.79,3,Cesar Casas,Hidalgo Early College,51.8,174.63,99.79,188.24,462.66,Single-ply,SBD,M
Boys,51.71,4,Pablo Gutierrez #3,Weslaco East,51.26,158.76,102.06,192.78,453.59,Single-ply,SBD,M
Boys,51.71,5,Diego Pena,Roma,51.35,167.83,95.25,181.44,444.52,Single-ply,SBD,M
Boys,51.71,6,Edgar Barbosa,Laredo Cigarroa,51.17,158.76,86.18,149.69,394.63,Single-ply,SBD,M
Boys,51.71,7,Josh Nowlin,San Antonio East Central,49.9,154.22,86.18,151.95,392.36,Single-ply,SBD,M
Boys,51.71,8,Eric Oliva,Laredo United South,51.71,147.42,86.18,158.76,392.36,Single-ply,SBD,M
Boys,55.79,9,Martin Villarreal,Laredo United South,51.89,136.08,88.45,161.03,385.55,Single-ply,SBD,M
Boys,55.79,10,Randy Trevino,Gregory-Portland,51.89,147.42,81.65,156.49,385.55,Single-ply,SBD,M
Boys,55.79,1,Omar Puente,Los Fresnos,55.52,190.51,127.01,204.12,521.63,Single-ply,SBD,M
Boys,55.79,2,Jerry Alaniz,Laredo Alexander,55.34,215.46,117.93,183.7,517.1,Single-ply,SBD,M
Boys,59.87,3,Daniel Chapa,Gregory-Portland,55.88,188.24,106.59,206.38,501.22,Single-ply,SBD,M
Boys,55.79,4,JR Torres,San Benito,55.07,163.29,90.72,183.7,437.72,Single-ply,SBD,M
Boys,55.79,5,Marcus Hernandez #1,Victoria West,54.43,158.76,79.38,158.76,396.89,Single-ply,SBD,M
Boys,55.79,6,Jacob de la Paz,Corpus Christi Calallen,55.43,161.03,72.57,158.76,392.36,Single-ply,SBD,M
Boys,55.79,7,Mauricio Galarza,San Antonio East Central,55.25,136.08,90.72,163.29,390.09,Single-ply,SBD,M
Boys,55.79,8,Mauro Garcia,Port Lavaca Calhoun,54.52,154.22,81.65,147.42,383.29,Single-ply,SBD,M
Boys,55.79,9,Mark Livesay,Floresville,55.25,138.35,65.77,147.42,351.53,Single-ply,SBD,M
Boys,55.79,DQ,Mike Jaramillo,PSJA Memorial,55.43,170.1,95.25,,,Single-ply,SBD,M
Boys,67.13,1,Ryan Yanez,Gregory-Portland,60.06,192.78,133.81,195.04,521.63,Single-ply,SBD,M
Boys,59.87,2,Rigo Pena,Pharr Valley View,59.24,188.24,124.74,185.97,498.95,Single-ply,SBD,M
Boys,59.87,3,Steve Solis,PSJA Memorial,59.33,195.04,104.33,199.58,498.95,Single-ply,SBD,M
Boys,67.13,4,Jeff Kearns,Gregory-Portland,60.06,195.04,113.4,190.51,498.95,Single-ply,SBD,M
Boys,59.87,5,Cesar Alfaro,Laredo United South,59.33,167.83,108.86,188.24,464.93,Single-ply,SBD,M
Boys,59.87,6,David Lopez,Laredo United South,59.42,161.03,108.86,188.24,458.13,Single-ply,SBD,M
Boys,59.87,7,Juan Delgado,Roma,59.87,156.49,95.25,183.7,435.45,Single-ply,SBD,M
Boys,67.13,DQ,Julian Morales,Weslaco,60.06,,,,,Single-ply,SBD,M
Boys,59.87,DQ,Lorenzo Huerta,PSJA Southwest,59.51,,,,,Single-ply,SBD,M
Boys,67.13,DQ,Isaac Diez,PSJA,60.06,,,,,Single-ply,SBD,M
Boys,67.13,1,JJ Gonzalez,Gregory-Portland,66.86,244.94,149.69,235.87,630.49,Single-ply,SBD,M
Boys,67.13,2,Ruben Salinas,Roma,66.95,251.74,140.61,229.06,621.42,Single-ply,SBD,M
Boys,67.13,3,Chris Galarza,Los Fresnos,64.95,240.4,131.54,226.8,598.74,Single-ply,SBD,M
Boys,67.13,4,Jose Bazaldua,Mercedes,65.86,215.46,133.81,215.46,564.72,Single-ply,SBD,M
Boys,67.13,5,Ernie Sandell,San Benito,66.22,204.12,136.08,219.99,560.19,Single-ply,SBD,M
Boys,67.13,6,Jared Reilly,Corpus Christi Calallen,67.04,208.65,120.2,219.99,548.85,Single-ply,SBD,M
Boys,67.13,7,Martin Armenta,Victoria West,66.41,213.19,120.2,210.92,544.31,Single-ply,SBD,M
Boys,74.84,DQ,Edward Palomin,Weslaco,67.22,,,,,Single-ply,SBD,M
Boys,67.13,DQ,Able Ingle,Floresville,64.05,181.44,108.86,,,Single-ply,SBD,M
Boys,67.13,DQ,Robert Cantu,Mission Sharyland,67.04,,,,,Single-ply,SBD,M
Boys,74.84,1,Abram Guerra,Rio Grande City,74.39,260.82,136.08,226.8,623.69,Single-ply,SBD,M
Boys,74.84,2,DJ Martinez,PSJA Memorial,73.84,229.06,142.88,233.6,605.55,Single-ply,SBD,M
Boys,74.84,3,Stevin Leal,Corpus Christi Tuloso-Midway,73.21,244.94,131.54,226.8,603.28,Single-ply,SBD,M
Boys,82.1,4,Miguel Galvan,Pharr Valley View,75.02,219.99,151.95,226.8,598.74,Single-ply,SBD,M
Boys,74.84,5,Esteban Flores,Pharr Valley View,73.66,210.92,131.54,249.48,591.94,Single-ply,SBD,M
Boys,74.84,6,Jose de la Rosa,Roma,74.66,215.46,133.81,240.4,589.67,Single-ply,SBD,M
Boys,82.1,7,Matt Ritch,San Antonio East Central,75.02,251.74,133.81,204.12,589.67,Single-ply,SBD,M
Boys,74.84,8,Noel Zuniga,PSJA,74.66,233.6,122.47,219.99,576.06,Single-ply,SBD,M
Boys,74.84,9,Tristan Pelitire,Beeville Jones,71.3,222.26,147.42,190.51,560.19,Single-ply,SBD,M
Boys,74.84,10,Derek Andrade,Weslaco East,73.12,190.51,127.01,229.06,546.58,Single-ply,SBD,M
Boys,82.1,1,Ryan Torres,Gregory-Portland,80.56,272.16,156.49,278.96,707.6,Single-ply,SBD,M
Boys,82.1,2,Lonnie Overturf,Comal Canyon,75.93,272.16,181.44,251.74,705.34,Single-ply,SBD,M
Boys,82.1,3,Luis Munos,Hidalgo Early College,81.74,281.23,140.61,244.94,666.78,Single-ply,SBD,M
Boys,82.1,4,Andy Mohl,Corpus Christi Tuloso-Midway,80.65,249.48,172.37,240.4,662.24,Single-ply,SBD,M
Boys,82.1,5,Jacob Ritch,San Antonio East Central,81.74,235.87,170.1,217.72,623.69,Single-ply,SBD,M
Boys,82.1,6,Eduardo Ramirez #1,Los Fresnos,79.83,249.48,140.61,222.26,612.35,Single-ply,SBD,M
Boys,82.1,7,Chris Belmares,Weslaco East,80.47,226.8,142.88,242.67,612.35,Single-ply,SBD,M
Boys,82.1,8,Miguel Pena,Pharr Valley View,82.01,222.26,154.22,235.87,612.35,Single-ply,SBD,M
Boys,89.81,9,Jacob Gonzalez,San Antonio East Central,82.28,251.74,113.4,199.58,564.72,Single-ply,SBD,M
Boys,82.1,10,Armin Solis,Rio Grande City,78.56,226.8,136.08,192.78,555.65,Single-ply,SBD,M
Boys,89.81,1,Jefferey Moreno,Comal Canyon,86.45,285.76,167.83,292.57,746.16,Single-ply,SBD,M
Boys,89.81,2,Brandon Griffith,Port Lavaca Calhoun,89.54,285.76,188.24,272.16,746.16,Single-ply,SBD,M
Boys,89.81,3,Javiel Rojas,Kingsville King,89.54,299.37,158.76,272.16,730.28,Single-ply,SBD,M
Boys,89.81,4,Richard Pena,San Antonio Southside,89.36,272.16,188.24,233.6,694,Single-ply,SBD,M
Boys,99.79,5,Danny Mora,Mission Sharyland,89.99,260.82,142.88,249.48,653.17,Single-ply,SBD,M
Boys,89.81,6,Victor Aguilar #2,Mercedes,89.27,249.48,138.35,256.28,644.1,Single-ply,SBD,M
Boys,89.81,7,Matt Hartman #3,Victoria West,87.91,247.21,127.01,260.82,635.03,Single-ply,SBD,M
Boys,89.81,8,Devin Bisby,Gregory-Portland,88.99,233.6,145.15,256.28,635.03,Single-ply,SBD,M
Boys,89.81,9,John Arevalo,Weslaco East,88.99,254.01,124.74,229.06,607.81,Single-ply,SBD,M
Boys,89.81,DQ,Leo Adams,Alice,87.82,233.6,149.69,,,Single-ply,SBD,M
Boys,99.79,1,Luis Hernandez,Edcouch-Elsa,98.97,272.16,183.7,272.16,728.02,Single-ply,SBD,M
Boys,99.79,2,Santos Dominguez,San Antonio East Central,97.61,276.69,172.37,260.82,709.87,Single-ply,SBD,M
Boys,99.79,3,Alex Tanguma,Corpus Christi Calallen,95.89,272.16,167.83,251.74,691.73,Single-ply,SBD,M
Boys,99.79,4,Julio Rivas,San Benito,99.7,254.01,156.49,263.08,673.58,Single-ply,SBD,M
Boys,99.79,5,Nick Trevino #2,Kingsville King,99.43,260.82,142.88,260.82,664.51,Single-ply,SBD,M
Boys,99.79,6,Joey Pitones,Pharr Valley View,93.98,231.33,147.42,258.55,637.3,Single-ply,SBD,M
Boys,99.79,7,Erick Fernandez,Laredo Nixon,98.07,240.4,154.22,240.4,635.03,Single-ply,SBD,M
Boys,99.79,8,Henry Vasquez,San Antonio East Central,98.97,235.87,133.81,219.99,589.67,Single-ply,SBD,M
Boys,99.79,9,Joe Hernandez #1,San Antonio East Central,97.52,238.14,136.08,206.38,580.6,Single-ply,SBD,M
Boys,99.79,DQ,Victor Rodriguez,Pharr Valley View,98.16,242.67,,,,Single-ply,SBD,M
Boys,109.77,1,Pj Hall,Seguin,108.95,294.84,158.76,278.96,732.55,Single-ply,SBD,M
Boys,109.77,2,Jesus Vallejo,Weslaco East,108.68,278.96,183.7,242.67,705.34,Single-ply,SBD,M
Boys,109.77,3,Chris McCumber,San Antonio East Central,109.5,281.23,176.9,240.4,698.53,Single-ply,SBD,M
Boys,109.77,4,Christian Garcia,Weslaco East,104.33,288.03,154.22,244.94,687.19,Single-ply,SBD,M
Boys,109.77,5,Victor Martinez,Laredo Martin,108.95,283.5,165.56,235.87,684.92,Single-ply,SBD,M
Boys,109.77,6,Michael Rodriguez #4,Kingsville King,104.78,256.28,197.31,226.8,680.39,Single-ply,SBD,M
Boys,109.77,7,Harley Vickers,Alice,108.86,278.96,183.7,217.72,680.39,Single-ply,SBD,M
Boys,109.77,8,Tk Nolte,Gregory-Portland,106.14,258.55,138.35,249.48,646.37,Single-ply,SBD,M
Boys,109.77,9,Frank Villarreal,Laredo Martin,108.95,281.23,147.42,206.38,635.03,Single-ply,SBD,M
Boys,109.77,DQ,Juan Garcia #2,Los Fresnos,107.5,,,,,Single-ply,SBD,M
Boys,124.74,1,Carlos Cuellar,Weslaco East,118.84,340.19,201.85,274.42,816.47,Single-ply,SBD,M
Boys,124.74,2,Roy Valdez,Los Fresnos,114.94,317.51,172.37,281.23,771.11,Single-ply,SBD,M
Boys,124.74,3,Pedro Lozano,San Benito,123.38,285.76,170.1,263.08,718.94,Single-ply,SBD,M
Boys,124.74,4,John Rodriguez,Edcouch-Elsa,123.56,265.35,172.37,272.16,709.87,Single-ply,SBD,M
Boys,124.74,5,Eddie Lopez,San Antonio East Central,120.47,308.44,165.56,229.06,703.07,Single-ply,SBD,M
Boys,124.74,6,Christian Guajardo,Pharr Valley View,124.1,267.62,165.56,254.01,687.19,Single-ply,SBD,M
Boys,124.74,7,Jorge Alvarez,Edcouch-Elsa,124.1,272.16,192.78,215.46,680.39,Single-ply,SBD,M
Boys,124.74,8,Richie Salinas,Kingsville King,122.11,244.94,201.85,213.19,659.98,Single-ply,SBD,M
Boys,124.74,9,Jacob Guerra,San Antonio Southside,118.12,272.16,154.22,229.06,655.44,Single-ply,SBD,M
Boys,124.74,DQ,Andrew Cruz,PSJA North,118.21,,,,,Single-ply,SBD,M
Boys,124.74+,1,Adam Aleman,Beeville Jones,151.41,317.51,149.69,258.55,725.75,Single-ply,SBD,M
Boys,124.74+,2,Mike Benito,San Benito,160.12,285.76,188.24,219.99,694,Single-ply,SBD,M
Boys,124.74+,3,Thaelen Villarreal,Port Lavaca Calhoun,159.21,238.14,170.1,238.14,646.37,Single-ply,SBD,M
Boys,124.74+,DQ,Bryan Tschatschula,Port Lavaca Calhoun,147.6,,,,,Single-ply,SBD,M
Boys,124.74+,DQ,Alexander Yanez,Mission,148.14,,,,,Single-ply,SBD,M
Boys,124.74+,DQ,Rick Perez #2,Donna,137.44,,,,,Single-ply,SBD,M
Boys,124.74+,DQ,Carlos Trevino,Seguin,127.01,244.94,165.56,,,Single-ply,SBD,M
Boys,124.74+,DQ,Mark Alarcon,San Antonio East Central,136.98,285.76,165.56,,,Single-ply,SBD,M
Boys,124.74+,DQ,Jose Flores #2,Laredo Cigarroa,141.43,267.62,,,,Single-ply,SBD,M
Boys,124.74+,DQ,Johnathon Saldana,Floresville,142.97,326.59,174.63,278.96,,Single-ply,SBD,M
